%!PS-Adobe-3.0 EPSF-3.0
%%Title: ../figures/figure1.eps
%%Creator: matplotlib version 1.2.1, http://matplotlib.org/
%%CreationDate: Thu Aug 15 10:00:01 2013
%%Orientation: portrait
%%BoundingBox: -270 -36 882 828
%%EndComments
%%BeginProlog
/mpldict 8 dict def
mpldict begin
/m { moveto } bind def
/l { lineto } bind def
/r { rlineto } bind def
/c { curveto } bind def
/cl { closepath } bind def
/box {
m
1 index 0 r
0 exch r
neg 0 r
cl
} bind def
/clipbox {
box
clip
newpath
} bind def
%!PS-Adobe-3.0 Resource-Font
%%Title: DejaVu Sans
%%Copyright: Copyright (c) 2003 by Bitstream, Inc. All Rights Reserved. Copyright (c) 2006 by Tavmjong Bah. All Rights Reserved. DejaVu changes are in public domain 
%%Creator: Converted from TrueType to type 3 by PPR
25 dict begin
/_d{bind def}bind def
/_m{moveto}_d
/_l{lineto}_d
/_cl{closepath eofill}_d
/_c{curveto}_d
/_sc{7 -1 roll{setcachedevice}{pop pop pop pop pop pop}ifelse}_d
/_e{exec}_d
/FontName /DejaVuSans def
/PaintType 0 def
/FontMatrix[.001 0 0 .001 0 0]def
/FontBBox[-1021 -415 1681 1167]def
/FontType 3 def
/Encoding [ /space /parenright /hyphen /one /two /A /B /C /D /E /F /G /H /I /J /K /L /M /N /O /P /Q /R /a /b /c /d /e /f /g /h /i /k /l /m /n /o /p /q /r /s /t /u /v /x /y /z ] def
/FontInfo 10 dict dup begin
/FamilyName (DejaVu Sans) def
/FullName (DejaVu Sans) def
/Notice (Copyright (c) 2003 by Bitstream, Inc. All Rights Reserved. Copyright (c) 2006 by Tavmjong Bah. All Rights Reserved. DejaVu changes are in public domain ) def
/Weight (Book) def
/Version (Version 2.33) def
/ItalicAngle 0.0 def
/isFixedPitch false def
/UnderlinePosition -130 def
/UnderlineThickness 90 def
end readonly def
/CharStrings 47 dict dup begin
/space{318 0 0 0 0 0 _sc
}_d
/parenright{390 0 80 -131 304 759 _sc
80 759 _m
158 759 _l
206 682 243 607 267 533 _c
291 459 304 386 304 314 _c
304 241 291 168 267 94 _c
243 20 206 -54 158 -131 _c
80 -131 _l
123 -56 155 17 177 91 _c
198 164 209 238 209 314 _c
209 389 198 463 177 536 _c
155 609 123 683 80 759 _c
_cl}_d
/hyphen{361 0 49 234 312 314 _sc
49 314 _m
312 314 _l
312 234 _l
49 234 _l
49 314 _l
_cl}_d
/one{636 0 110 0 544 729 _sc
124 83 _m
285 83 _l
285 639 _l
110 604 _l
110 694 _l
284 729 _l
383 729 _l
383 83 _l
544 83 _l
544 0 _l
124 0 _l
124 83 _l
_cl}_d
/two{{636 0 73 0 536 742 _sc
192 83 _m
536 83 _l
536 0 _l
73 0 _l
73 83 _l
110 121 161 173 226 239 _c
290 304 331 346 348 365 _c
380 400 402 430 414 455 _c
426 479 433 504 433 528 _c
433 566 419 598 392 622 _c
365 646 330 659 286 659 _c
255 659 222 653 188 643 _c
154 632 117 616 78 594 _c
78 694 _l
118 710 155 722 189 730 _c
223 738 255 742 284 742 _c
}_e{359 742 419 723 464 685 _c
509 647 532 597 532 534 _c
532 504 526 475 515 449 _c
504 422 484 390 454 354 _c
446 344 420 317 376 272 _c
332 227 271 164 192 83 _c
_cl}_e}_d
/A{684 0 8 0 676 729 _sc
342 632 _m
208 269 _l
476 269 _l
342 632 _l
286 729 _m
398 729 _l
676 0 _l
573 0 _l
507 187 _l
178 187 _l
112 0 _l
8 0 _l
286 729 _l
_cl}_d
/B{{686 0 98 0 615 729 _sc
197 348 _m
197 81 _l
355 81 _l
408 81 447 92 473 114 _c
498 136 511 169 511 215 _c
511 260 498 293 473 315 _c
447 337 408 348 355 348 _c
197 348 _l
197 648 _m
197 428 _l
343 428 _l
391 428 426 437 450 455 _c
474 473 486 500 486 538 _c
486 574 474 602 450 620 _c
426 638 391 648 343 648 _c
197 648 _l
98 729 _m
350 729 _l
}_e{425 729 483 713 524 682 _c
564 650 585 606 585 549 _c
585 504 574 468 553 442 _c
532 416 502 399 462 393 _c
510 382 548 360 575 327 _c
601 294 615 253 615 204 _c
615 138 592 88 548 53 _c
504 17 441 0 360 0 _c
98 0 _l
98 729 _l
_cl}_e}_d
/C{{698 0 56 -13 644 742 _sc
644 673 _m
644 569 _l
610 599 575 622 537 638 _c
499 653 460 661 418 661 _c
334 661 270 635 226 584 _c
182 533 160 460 160 364 _c
160 268 182 194 226 143 _c
270 92 334 67 418 67 _c
460 67 499 74 537 90 _c
575 105 610 128 644 159 _c
644 56 _l
609 32 572 15 534 4 _c
496 -7 455 -13 412 -13 _c
302 -13 215 20 151 87 _c
}_e{87 154 56 246 56 364 _c
56 481 87 573 151 641 _c
215 708 302 742 412 742 _c
456 742 497 736 535 725 _c
573 713 610 696 644 673 _c
_cl}_e}_d
/D{770 0 98 0 711 729 _sc
197 648 _m
197 81 _l
316 81 _l
416 81 490 103 537 149 _c
583 195 607 267 607 365 _c
607 463 583 534 537 580 _c
490 625 416 648 316 648 _c
197 648 _l
98 729 _m
301 729 _l
442 729 546 699 612 641 _c
678 582 711 490 711 365 _c
711 239 677 147 611 88 _c
545 29 441 0 301 0 _c
98 0 _l
98 729 _l
_cl}_d
/E{632 0 98 0 568 729 _sc
98 729 _m
559 729 _l
559 646 _l
197 646 _l
197 430 _l
544 430 _l
544 347 _l
197 347 _l
197 83 _l
568 83 _l
568 0 _l
98 0 _l
98 729 _l
_cl}_d
/F{575 0 98 0 517 729 _sc
98 729 _m
517 729 _l
517 646 _l
197 646 _l
197 431 _l
486 431 _l
486 348 _l
197 348 _l
197 0 _l
98 0 _l
98 729 _l
_cl}_d
/G{{775 0 56 -13 693 742 _sc
595 104 _m
595 300 _l
434 300 _l
434 381 _l
693 381 _l
693 68 _l
655 40 613 20 567 7 _c
521 -6 472 -13 420 -13 _c
306 -13 216 20 152 86 _c
88 152 56 245 56 364 _c
56 482 88 575 152 642 _c
216 708 306 742 420 742 _c
467 742 512 736 555 724 _c
598 712 638 695 674 673 _c
674 568 _l
637 598 598 621 557 637 _c
516 653 473 661 428 661 _c
}_e{338 661 271 636 227 586 _c
182 536 160 462 160 364 _c
160 265 182 191 227 141 _c
271 91 338 67 428 67 _c
462 67 493 70 521 76 _c
549 82 573 91 595 104 _c
_cl}_e}_d
/H{752 0 98 0 654 729 _sc
98 729 _m
197 729 _l
197 430 _l
555 430 _l
555 729 _l
654 729 _l
654 0 _l
555 0 _l
555 347 _l
197 347 _l
197 0 _l
98 0 _l
98 729 _l
_cl}_d
/I{295 0 98 0 197 729 _sc
98 729 _m
197 729 _l
197 0 _l
98 0 _l
98 729 _l
_cl}_d
/J{295 0 -51 -199 197 729 _sc
98 729 _m
197 729 _l
197 51 _l
197 -36 180 -99 147 -139 _c
113 -179 60 -199 -13 -199 _c
-51 -199 _l
-51 -116 _l
-20 -116 _l
22 -116 53 -103 71 -79 _c
89 -55 98 -11 98 51 _c
98 729 _l
_cl}_d
/K{656 0 98 0 677 729 _sc
98 729 _m
197 729 _l
197 421 _l
524 729 _l
651 729 _l
289 389 _l
677 0 _l
547 0 _l
197 351 _l
197 0 _l
98 0 _l
98 729 _l
_cl}_d
/L{557 0 98 0 552 729 _sc
98 729 _m
197 729 _l
197 83 _l
552 83 _l
552 0 _l
98 0 _l
98 729 _l
_cl}_d
/M{863 0 98 0 765 729 _sc
98 729 _m
245 729 _l
431 233 _l
618 729 _l
765 729 _l
765 0 _l
669 0 _l
669 640 _l
481 140 _l
382 140 _l
194 640 _l
194 0 _l
98 0 _l
98 729 _l
_cl}_d
/N{748 0 98 0 650 729 _sc
98 729 _m
231 729 _l
554 119 _l
554 729 _l
650 729 _l
650 0 _l
517 0 _l
194 610 _l
194 0 _l
98 0 _l
98 729 _l
_cl}_d
/O{787 0 56 -13 731 742 _sc
394 662 _m
322 662 265 635 223 582 _c
181 528 160 456 160 364 _c
160 272 181 199 223 146 _c
265 92 322 66 394 66 _c
465 66 522 92 564 146 _c
606 199 627 272 627 364 _c
627 456 606 528 564 582 _c
522 635 465 662 394 662 _c
394 742 _m
496 742 577 707 639 639 _c
700 571 731 479 731 364 _c
731 248 700 157 639 89 _c
577 21 496 -13 394 -13 _c
291 -13 209 21 148 89 _c
86 157 56 248 56 364 _c
56 479 86 571 148 639 _c
209 707 291 742 394 742 _c
_cl}_d
/P{603 0 98 0 569 729 _sc
197 648 _m
197 374 _l
321 374 _l
367 374 402 385 427 409 _c
452 433 465 467 465 511 _c
465 555 452 588 427 612 _c
402 636 367 648 321 648 _c
197 648 _l
98 729 _m
321 729 _l
402 729 464 710 506 673 _c
548 636 569 582 569 511 _c
569 439 548 384 506 348 _c
464 311 402 293 321 293 _c
197 293 _l
197 0 _l
98 0 _l
98 729 _l
_cl}_d
/Q{{787 0 56 -128 731 742 _sc
394 662 _m
322 662 265 635 223 582 _c
181 528 160 456 160 364 _c
160 272 181 199 223 146 _c
265 92 322 66 394 66 _c
465 66 522 92 564 146 _c
606 199 627 272 627 364 _c
627 456 606 528 564 582 _c
522 635 465 662 394 662 _c
532 13 _m
662 -128 _l
543 -128 _l
435 -11 _l
424 -11 416 -12 410 -12 _c
404 -12 399 -13 394 -13 _c
291 -13 209 21 148 89 _c
}_e{86 157 56 248 56 364 _c
56 479 86 571 148 639 _c
209 707 291 742 394 742 _c
496 742 577 707 639 639 _c
700 571 731 479 731 364 _c
731 279 714 206 680 146 _c
646 86 596 41 532 13 _c
_cl}_e}_d
/R{{695 0 98 0 666 729 _sc
444 342 _m
465 334 486 319 506 296 _c
526 272 546 240 566 199 _c
666 0 _l
560 0 _l
467 187 _l
443 235 419 268 397 284 _c
374 300 343 308 304 308 _c
197 308 _l
197 0 _l
98 0 _l
98 729 _l
321 729 _l
404 729 466 711 507 677 _c
548 642 569 589 569 519 _c
569 473 558 434 537 404 _c
515 374 484 353 444 342 _c
197 648 _m
197 389 _l
321 389 _l
}_e{368 389 404 400 428 422 _c
452 444 465 476 465 519 _c
465 561 452 593 428 615 _c
404 637 368 648 321 648 _c
197 648 _l
_cl}_e}_d
/a{{613 0 60 -13 522 560 _sc
343 275 _m
270 275 220 266 192 250 _c
164 233 150 205 150 165 _c
150 133 160 107 181 89 _c
202 70 231 61 267 61 _c
317 61 357 78 387 114 _c
417 149 432 196 432 255 _c
432 275 _l
343 275 _l
522 312 _m
522 0 _l
432 0 _l
432 83 _l
411 49 385 25 355 10 _c
325 -5 287 -13 243 -13 _c
187 -13 142 2 109 33 _c
76 64 60 106 60 159 _c
}_e{60 220 80 266 122 298 _c
163 329 224 345 306 345 _c
432 345 _l
432 354 _l
432 395 418 427 391 450 _c
364 472 326 484 277 484 _c
245 484 215 480 185 472 _c
155 464 127 453 100 439 _c
100 522 _l
132 534 164 544 195 550 _c
226 556 256 560 286 560 _c
365 560 424 539 463 498 _c
502 457 522 395 522 312 _c
_cl}_e}_d
/b{{635 0 91 -13 580 760 _sc
487 273 _m
487 339 473 390 446 428 _c
418 466 381 485 334 485 _c
286 485 249 466 222 428 _c
194 390 181 339 181 273 _c
181 207 194 155 222 117 _c
249 79 286 61 334 61 _c
381 61 418 79 446 117 _c
473 155 487 207 487 273 _c
181 464 _m
199 496 223 520 252 536 _c
281 552 316 560 356 560 _c
422 560 476 533 518 481 _c
559 428 580 359 580 273 _c
}_e{580 187 559 117 518 65 _c
476 13 422 -13 356 -13 _c
316 -13 281 -5 252 10 _c
223 25 199 49 181 82 _c
181 0 _l
91 0 _l
91 760 _l
181 760 _l
181 464 _l
_cl}_e}_d
/c{{550 0 55 -13 488 560 _sc
488 526 _m
488 442 _l
462 456 437 466 411 473 _c
385 480 360 484 334 484 _c
276 484 230 465 198 428 _c
166 391 150 339 150 273 _c
150 206 166 154 198 117 _c
230 80 276 62 334 62 _c
360 62 385 65 411 72 _c
437 79 462 90 488 104 _c
488 21 _l
462 9 436 0 410 -5 _c
383 -10 354 -13 324 -13 _c
242 -13 176 12 128 64 _c
}_e{79 115 55 185 55 273 _c
55 362 79 432 128 483 _c
177 534 244 560 330 560 _c
358 560 385 557 411 551 _c
437 545 463 537 488 526 _c
_cl}_e}_d
/d{{635 0 55 -13 544 760 _sc
454 464 _m
454 760 _l
544 760 _l
544 0 _l
454 0 _l
454 82 _l
435 49 411 25 382 10 _c
353 -5 319 -13 279 -13 _c
213 -13 159 13 117 65 _c
75 117 55 187 55 273 _c
55 359 75 428 117 481 _c
159 533 213 560 279 560 _c
319 560 353 552 382 536 _c
411 520 435 496 454 464 _c
148 273 _m
148 207 161 155 188 117 _c
215 79 253 61 301 61 _c
}_e{348 61 385 79 413 117 _c
440 155 454 207 454 273 _c
454 339 440 390 413 428 _c
385 466 348 485 301 485 _c
253 485 215 466 188 428 _c
161 390 148 339 148 273 _c
_cl}_e}_d
/e{{615 0 55 -13 562 560 _sc
562 296 _m
562 252 _l
149 252 _l
153 190 171 142 205 110 _c
238 78 284 62 344 62 _c
378 62 412 66 444 74 _c
476 82 509 95 541 113 _c
541 28 _l
509 14 476 3 442 -3 _c
408 -9 373 -13 339 -13 _c
251 -13 182 12 131 62 _c
80 112 55 181 55 268 _c
55 357 79 428 127 481 _c
175 533 241 560 323 560 _c
397 560 455 536 498 489 _c
}_e{540 441 562 377 562 296 _c
472 322 _m
471 371 457 410 431 440 _c
404 469 368 484 324 484 _c
274 484 234 469 204 441 _c
174 413 156 373 152 322 _c
472 322 _l
_cl}_e}_d
/f{352 0 23 0 371 760 _sc
371 760 _m
371 685 _l
285 685 _l
253 685 230 678 218 665 _c
205 652 199 629 199 595 _c
199 547 _l
347 547 _l
347 477 _l
199 477 _l
199 0 _l
109 0 _l
109 477 _l
23 477 _l
23 547 _l
109 547 _l
109 585 _l
109 645 123 690 151 718 _c
179 746 224 760 286 760 _c
371 760 _l
_cl}_d
/g{{635 0 55 -207 544 560 _sc
454 280 _m
454 344 440 395 414 431 _c
387 467 349 485 301 485 _c
253 485 215 467 188 431 _c
161 395 148 344 148 280 _c
148 215 161 165 188 129 _c
215 93 253 75 301 75 _c
349 75 387 93 414 129 _c
440 165 454 215 454 280 _c
544 68 _m
544 -24 523 -93 482 -139 _c
440 -184 377 -207 292 -207 _c
260 -207 231 -204 203 -200 _c
175 -195 147 -188 121 -178 _c
}_e{121 -91 _l
147 -105 173 -115 199 -122 _c
225 -129 251 -133 278 -133 _c
336 -133 380 -117 410 -87 _c
439 -56 454 -10 454 52 _c
454 96 _l
435 64 411 40 382 24 _c
353 8 319 0 279 0 _c
211 0 157 25 116 76 _c
75 127 55 195 55 280 _c
55 364 75 432 116 483 _c
157 534 211 560 279 560 _c
319 560 353 552 382 536 _c
411 520 435 496 454 464 _c
454 547 _l
544 547 _l
}_e{544 68 _l
_cl}_e}_d
/h{634 0 91 0 549 760 _sc
549 330 _m
549 0 _l
459 0 _l
459 327 _l
459 379 448 417 428 443 _c
408 469 378 482 338 482 _c
289 482 251 466 223 435 _c
195 404 181 362 181 309 _c
181 0 _l
91 0 _l
91 760 _l
181 760 _l
181 462 _l
202 494 227 519 257 535 _c
286 551 320 560 358 560 _c
420 560 468 540 500 501 _c
532 462 549 405 549 330 _c
_cl}_d
/i{278 0 94 0 184 760 _sc
94 547 _m
184 547 _l
184 0 _l
94 0 _l
94 547 _l
94 760 _m
184 760 _l
184 646 _l
94 646 _l
94 760 _l
_cl}_d
/k{579 0 91 0 576 760 _sc
91 760 _m
181 760 _l
181 311 _l
449 547 _l
564 547 _l
274 291 _l
576 0 _l
459 0 _l
181 267 _l
181 0 _l
91 0 _l
91 760 _l
_cl}_d
/l{278 0 94 0 184 760 _sc
94 760 _m
184 760 _l
184 0 _l
94 0 _l
94 760 _l
_cl}_d
/m{{974 0 91 0 889 560 _sc
520 442 _m
542 482 569 511 600 531 _c
631 550 668 560 711 560 _c
767 560 811 540 842 500 _c
873 460 889 403 889 330 _c
889 0 _l
799 0 _l
799 327 _l
799 379 789 418 771 444 _c
752 469 724 482 686 482 _c
639 482 602 466 575 435 _c
548 404 535 362 535 309 _c
535 0 _l
445 0 _l
445 327 _l
445 379 435 418 417 444 _c
398 469 369 482 331 482 _c
}_e{285 482 248 466 221 435 _c
194 404 181 362 181 309 _c
181 0 _l
91 0 _l
91 547 _l
181 547 _l
181 462 _l
201 495 226 520 255 536 _c
283 552 317 560 357 560 _c
397 560 430 550 458 530 _c
486 510 506 480 520 442 _c
_cl}_e}_d
/n{634 0 91 0 549 560 _sc
549 330 _m
549 0 _l
459 0 _l
459 327 _l
459 379 448 417 428 443 _c
408 469 378 482 338 482 _c
289 482 251 466 223 435 _c
195 404 181 362 181 309 _c
181 0 _l
91 0 _l
91 547 _l
181 547 _l
181 462 _l
202 494 227 519 257 535 _c
286 551 320 560 358 560 _c
420 560 468 540 500 501 _c
532 462 549 405 549 330 _c
_cl}_d
/o{612 0 55 -13 557 560 _sc
306 484 _m
258 484 220 465 192 427 _c
164 389 150 338 150 273 _c
150 207 163 156 191 118 _c
219 80 257 62 306 62 _c
354 62 392 80 420 118 _c
448 156 462 207 462 273 _c
462 337 448 389 420 427 _c
392 465 354 484 306 484 _c
306 560 _m
384 560 445 534 490 484 _c
534 433 557 363 557 273 _c
557 183 534 113 490 63 _c
445 12 384 -13 306 -13 _c
227 -13 165 12 121 63 _c
77 113 55 183 55 273 _c
55 363 77 433 121 484 _c
165 534 227 560 306 560 _c
_cl}_d
/p{{635 0 91 -207 580 560 _sc
181 82 _m
181 -207 _l
91 -207 _l
91 547 _l
181 547 _l
181 464 _l
199 496 223 520 252 536 _c
281 552 316 560 356 560 _c
422 560 476 533 518 481 _c
559 428 580 359 580 273 _c
580 187 559 117 518 65 _c
476 13 422 -13 356 -13 _c
316 -13 281 -5 252 10 _c
223 25 199 49 181 82 _c
487 273 _m
487 339 473 390 446 428 _c
418 466 381 485 334 485 _c
}_e{286 485 249 466 222 428 _c
194 390 181 339 181 273 _c
181 207 194 155 222 117 _c
249 79 286 61 334 61 _c
381 61 418 79 446 117 _c
473 155 487 207 487 273 _c
_cl}_e}_d
/q{{635 0 55 -207 544 560 _sc
148 273 _m
148 207 161 155 188 117 _c
215 79 253 61 301 61 _c
348 61 385 79 413 117 _c
440 155 454 207 454 273 _c
454 339 440 390 413 428 _c
385 466 348 485 301 485 _c
253 485 215 466 188 428 _c
161 390 148 339 148 273 _c
454 82 _m
435 49 411 25 382 10 _c
353 -5 319 -13 279 -13 _c
213 -13 159 13 117 65 _c
75 117 55 187 55 273 _c
}_e{55 359 75 428 117 481 _c
159 533 213 560 279 560 _c
319 560 353 552 382 536 _c
411 520 435 496 454 464 _c
454 547 _l
544 547 _l
544 -207 _l
454 -207 _l
454 82 _l
_cl}_e}_d
/r{411 0 91 0 411 560 _sc
411 463 _m
401 469 390 473 378 476 _c
366 478 353 480 339 480 _c
288 480 249 463 222 430 _c
194 397 181 350 181 288 _c
181 0 _l
91 0 _l
91 547 _l
181 547 _l
181 462 _l
199 495 224 520 254 536 _c
284 552 321 560 365 560 _c
371 560 378 559 386 559 _c
393 558 401 557 411 555 _c
411 463 _l
_cl}_d
/s{{521 0 54 -13 472 560 _sc
443 531 _m
443 446 _l
417 458 391 468 364 475 _c
336 481 308 485 279 485 _c
234 485 200 478 178 464 _c
156 450 145 430 145 403 _c
145 382 153 366 169 354 _c
185 342 217 330 265 320 _c
296 313 _l
360 299 405 279 432 255 _c
458 230 472 195 472 151 _c
472 100 452 60 412 31 _c
372 1 316 -13 246 -13 _c
216 -13 186 -10 154 -5 _c
}_e{122 0 89 8 54 20 _c
54 113 _l
87 95 120 82 152 74 _c
184 65 216 61 248 61 _c
290 61 323 68 346 82 _c
368 96 380 117 380 144 _c
380 168 371 187 355 200 _c
339 213 303 226 247 238 _c
216 245 _l
160 257 119 275 95 299 _c
70 323 58 356 58 399 _c
58 450 76 490 112 518 _c
148 546 200 560 268 560 _c
301 560 332 557 362 552 _c
391 547 418 540 443 531 _c
}_e{_cl}_e}_d
/t{392 0 27 0 368 702 _sc
183 702 _m
183 547 _l
368 547 _l
368 477 _l
183 477 _l
183 180 _l
183 135 189 106 201 94 _c
213 81 238 75 276 75 _c
368 75 _l
368 0 _l
276 0 _l
206 0 158 13 132 39 _c
106 65 93 112 93 180 _c
93 477 _l
27 477 _l
27 547 _l
93 547 _l
93 702 _l
183 702 _l
_cl}_d
/u{634 0 85 -13 543 560 _sc
85 216 _m
85 547 _l
175 547 _l
175 219 _l
175 167 185 129 205 103 _c
225 77 255 64 296 64 _c
344 64 383 79 411 110 _c
439 141 453 183 453 237 _c
453 547 _l
543 547 _l
543 0 _l
453 0 _l
453 84 _l
431 50 405 26 377 10 _c
348 -5 315 -13 277 -13 _c
214 -13 166 6 134 45 _c
101 83 85 140 85 216 _c
311 560 _m
311 560 _l
_cl}_d
/v{592 0 30 0 562 547 _sc
30 547 _m
125 547 _l
296 88 _l
467 547 _l
562 547 _l
357 0 _l
235 0 _l
30 547 _l
_cl}_d
/x{592 0 29 0 559 547 _sc
549 547 _m
351 281 _l
559 0 _l
453 0 _l
294 215 _l
135 0 _l
29 0 _l
241 286 _l
47 547 _l
153 547 _l
298 352 _l
443 547 _l
549 547 _l
_cl}_d
/y{592 0 30 -207 562 547 _sc
322 -50 _m
296 -114 271 -157 247 -177 _c
223 -197 191 -207 151 -207 _c
79 -207 _l
79 -132 _l
132 -132 _l
156 -132 175 -126 189 -114 _c
203 -102 218 -75 235 -31 _c
251 9 _l
30 547 _l
125 547 _l
296 119 _l
467 547 _l
562 547 _l
322 -50 _l
_cl}_d
/z{525 0 43 0 482 547 _sc
55 547 _m
482 547 _l
482 465 _l
144 72 _l
482 72 _l
482 0 _l
43 0 _l
43 82 _l
381 475 _l
55 475 _l
55 547 _l
_cl}_d
end readonly def

/BuildGlyph
 {exch begin
 CharStrings exch
 2 copy known not{pop /.notdef}if
 true 3 1 roll get exec
 end}_d

/BuildChar {
 1 index /Encoding get exch get
 1 index /BuildGlyph get exec
}_d

FontName currentdict end definefont pop
end
%%EndProlog
mpldict begin
-270 -36 translate
1152 864 0 0 clipbox
gsave
0 0 m
1152 0 l
1152 864 l
0 864 l
cl
1.000 setgray
fill
grestore
2.000 setlinewidth
1 setlinejoin
2 setlinecap
[] 0 setdash
0.204 0.541 0.741 setrgbcolor
gsave
194.1 115.4 144 662.2 clipbox
144 682.024 m
163.409 682.024 l
164.379 688.266 l
165.835 696.876 l
166.805 704.36 l
167.29 709.572 l
167.776 716.744 l
168.261 727.55 l
168.746 745.888 l
169.231 776.654 l
169.717 688.087 l
172.143 694.842 l
173.113 698.371 l
174.083 703.286 l
174.569 706.721 l
175.054 711.31 l
175.539 717.829 l
176.024 727.852 l
176.51 745.013 l
176.995 776.654 l
177.48 686.68 l
179.421 686.541 l
181.362 686.624 l
183.788 686.969 l
186.214 687.527 l
188.64 688.279 l
191.066 689.242 l
193.007 690.212 l
194.948 691.441 l
196.403 692.625 l
197.859 694.171 l
198.83 695.519 l
199.8 697.274 l
200.77 699.685 l
201.256 701.278 l
201.741 703.26 l
202.226 705.8 l
202.711 709.172 l
203.197 713.859 l
203.682 720.767 l
204.167 731.794 l
204.652 751.48 l
205.137 776.654 l
205.623 685.816 l
206.593 684.173 l
207.563 682.897 l
208.534 681.987 l
209.504 681.391 l
210.475 681.037 l
211.93 680.819 l
213.871 680.868 l
216.783 681.263 l
221.635 682.2 l
228.913 683.835 l
234.736 685.348 l
239.103 686.685 l
242.499 687.932 l
245.41 689.247 l
247.351 690.333 l
249.292 691.699 l
250.748 693.019 l
251.718 694.122 l
252.689 695.494 l
253.659 697.277 l
254.63 699.727 l
255.115 701.346 l
255.6 703.363 l
256.085 705.95 l
256.57 709.392 l
257.056 714.188 l
257.541 721.285 l
258.026 732.676 l
258.997 776.654 l
259.482 685.83 l
260.452 684.211 l
261.423 682.953 l
262.393 682.054 l
263.363 681.463 l
264.334 681.112 l
265.79 680.894 l
267.73 680.942 l
270.642 681.336 l
275.494 682.274 l
282.772 683.919 l
288.595 685.446 l
292.962 686.801 l
296.358 688.072 l
298.784 689.175 l
300.725 690.246 l
302.666 691.586 l
304.122 692.875 l
305.092 693.945 l
306.063 695.271 l
307.033 696.982 l
308.003 699.31 l
308.974 702.721 l
309.459 705.117 l
309.944 708.269 l
310.43 712.595 l
310.915 718.875 l
311.4 728.69 l
311.885 745.694 l
312.37 776.654 l
312.856 685.837 l
313.826 684.23 l
314.797 682.98 l
315.767 682.087 l
316.737 681.499 l
317.708 681.148 l
319.163 680.931 l
321.104 680.978 l
323.53 681.291 l
327.897 682.11 l
334.69 683.61 l
337.602 684.321 l
337.602 684.321 l
stroke
grestore
0.651 0.024 0.157 setrgbcolor
gsave
194.1 115.4 144 662.2 clipbox
144 682.024 m
163.409 682.024 l
163.894 695.272 l
337.602 695.272 l
337.602 695.272 l
stroke
grestore
0.000 setgray
/DejaVuSans findfont
14.400 scalefont
setfont
gsave
186.090353 779.693750 translate
0.000000 rotate
0.000000 2.906250 m /A glyphshow
9.844360 2.906250 m /parenright glyphshow
15.458664 2.906250 m /space glyphshow
20.033020 2.906250 m /t glyphshow
25.675430 2.906250 m /o glyphshow
34.479843 2.906250 m /n glyphshow
43.600464 2.906250 m /i glyphshow
47.598633 2.906250 m /c glyphshow
55.510666 2.906250 m /space glyphshow
60.085022 2.906250 m /s glyphshow
67.582474 2.906250 m /p glyphshow
76.717148 2.906250 m /i glyphshow
80.715317 2.906250 m /k glyphshow
89.048950 2.906250 m /i glyphshow
93.047119 2.906250 m /n glyphshow
102.167740 2.906250 m /g glyphshow
grestore
0.204 0.541 0.741 setrgbcolor
gsave
194.1 115.4 376.9 662.2 clipbox
376.904 687.664 m
380.301 687.254 l
384.183 687.02 l
389.763 686.934 l
396.313 686.98 l
398.254 687.826 l
400.923 688.709 l
410.627 691.666 l
412.325 692.542 l
413.538 693.428 l
414.509 694.43 l
415.237 695.481 l
415.964 696.981 l
416.45 698.402 l
416.935 700.399 l
417.42 703.399 l
417.905 708.358 l
418.39 717.847 l
418.633 726.521 l
418.876 741.245 l
419.118 769.882 l
419.361 776.654 l
419.603 685.25 l
420.331 681.511 l
420.817 679.847 l
421.302 678.783 l
421.787 678.16 l
422.272 677.827 l
423 677.634 l
423.97 677.64 l
426.154 677.947 l
441.681 680.404 l
453.811 682.061 l
466.67 683.592 l
480.256 684.984 l
494.327 686.203 l
508.883 687.239 l
523.197 688.036 l
536.541 688.559 l
548.914 688.827 l
561.772 688.876 l
570.749 688.809 l
570.749 688.809 l
stroke
grestore
0.651 0.024 0.157 setrgbcolor
gsave
194.1 115.4 376.9 662.2 clipbox
376.904 682.024 m
396.313 682.024 l
396.556 682.497 l
570.749 682.497 l
570.749 682.497 l
stroke
grestore
0.000 setgray
gsave
413.486889 779.693750 translate
0.000000 rotate
0.000000 2.906250 m /B glyphshow
9.872467 2.906250 m /parenright glyphshow
15.486771 2.906250 m /space glyphshow
20.061127 2.906250 m /p glyphshow
29.195801 2.906250 m /h glyphshow
38.316422 2.906250 m /a glyphshow
47.134888 2.906250 m /s glyphshow
54.632339 2.906250 m /i glyphshow
58.630508 2.906250 m /c glyphshow
66.542542 2.906250 m /space glyphshow
71.116898 2.906250 m /s glyphshow
78.614349 2.906250 m /p glyphshow
87.749023 2.906250 m /i glyphshow
91.747192 2.906250 m /k glyphshow
100.080826 2.906250 m /i glyphshow
104.078995 2.906250 m /n glyphshow
113.199615 2.906250 m /g glyphshow
grestore
0.204 0.541 0.741 setrgbcolor
gsave
194.1 115.4 609.8 662.2 clipbox
609.809 682.024 m
629.217 682.024 l
630.761 706.805 l
631.202 722.165 l
631.423 736.679 l
631.643 763.542 l
631.864 776.654 l
632.085 704.862 l
632.526 716.905 l
632.746 727.484 l
632.967 745.448 l
633.187 776.654 l
633.408 704.333 l
633.849 714.631 l
634.07 723.409 l
634.29 737.729 l
634.511 764.584 l
634.731 776.654 l
634.952 703.798 l
635.393 712.369 l
635.613 719.455 l
635.834 730.552 l
636.275 776.654 l
636.496 703.297 l
636.937 710.291 l
637.157 715.909 l
637.378 724.377 l
637.598 738.397 l
637.819 764.937 l
638.04 776.654 l
638.26 702.801 l
638.701 708.266 l
639.142 718.726 l
639.363 728.393 l
639.583 745.096 l
639.804 776.654 l
640.025 702.347 l
640.466 706.442 l
640.907 713.933 l
641.127 720.402 l
641.348 730.712 l
641.568 748.964 l
641.789 776.654 l
642.009 701.916 l
642.451 704.736 l
642.892 709.687 l
643.333 719.643 l
643.553 729.05 l
643.774 745.467 l
643.994 776.654 l
644.215 701.518 l
644.656 703.187 l
645.097 706.028 l
645.538 711.232 l
645.759 715.584 l
645.979 722.18 l
646.2 732.934 l
646.641 776.654 l
646.862 701.159 l
647.303 701.804 l
647.744 702.911 l
648.185 704.816 l
648.626 708.225 l
649.067 714.876 l
649.288 720.783 l
649.508 730.286 l
649.729 747.11 l
649.949 776.654 l
650.17 700.872 l
652.375 699.971 l
653.478 699.278 l
654.14 698.658 l
654.802 697.766 l
655.463 696.464 l
656.125 694.617 l
657.007 691.272 l
658.551 684.965 l
659.213 683.16 l
659.874 682.073 l
660.536 681.538 l
661.198 681.361 l
662.08 681.442 l
663.403 681.88 l
665.609 682.915 l
668.476 684.513 l
670.902 686.12 l
672.666 687.541 l
673.99 688.854 l
675.092 690.229 l
675.975 691.645 l
676.857 693.562 l
677.519 695.6 l
678.18 698.653 l
678.621 701.79 l
679.062 706.755 l
679.504 715.849 l
679.724 723.889 l
679.945 737.157 l
680.386 776.654 l
680.606 702.419 l
681.047 706.728 l
681.489 714.667 l
681.709 721.596 l
681.93 732.779 l
682.371 776.654 l
682.591 701.98 l
683.032 704.987 l
683.474 710.299 l
683.915 721.147 l
684.135 731.609 l
684.576 776.654 l
684.797 701.574 l
685.238 703.401 l
685.679 706.524 l
686.12 712.315 l
686.341 717.238 l
686.561 724.839 l
686.782 737.577 l
687.223 776.654 l
687.443 701.2 l
687.885 701.962 l
688.326 703.26 l
688.767 705.502 l
689.208 709.578 l
689.649 717.815 l
689.87 725.45 l
690.09 738.34 l
690.531 776.654 l
690.752 700.892 l
692.075 700.657 l
692.737 700.692 l
693.398 700.958 l
693.84 701.362 l
694.281 702.076 l
694.722 703.303 l
695.163 705.433 l
695.604 709.303 l
696.045 717.074 l
696.266 724.206 l
696.486 736.099 l
696.927 776.654 l
697.148 700.838 l
698.03 700.273 l
698.692 699.637 l
699.353 698.672 l
700.015 697.183 l
700.677 694.963 l
701.559 690.807 l
702.882 684.188 l
703.544 682.033 l
703.985 681.135 l
704.426 680.582 l
704.867 680.281 l
705.529 680.137 l
706.411 680.259 l
707.734 680.72 l
710.381 681.931 l
713.91 683.785 l
716.557 685.409 l
718.542 686.865 l
720.085 688.25 l
721.409 689.752 l
722.291 691.035 l
723.173 692.715 l
723.835 694.428 l
724.496 696.854 l
724.938 699.189 l
725.379 702.6 l
725.82 708.129 l
726.261 718.662 l
726.481 728.376 l
726.702 745.154 l
726.923 776.654 l
727.143 702.434 l
727.584 706.79 l
728.025 714.825 l
728.246 721.855 l
728.466 733.232 l
728.908 776.654 l
729.128 701.993 l
729.569 705.041 l
730.01 710.43 l
730.451 721.474 l
730.672 732.173 l
731.113 776.654 l
731.334 701.585 l
731.775 703.447 l
732.216 706.63 l
732.657 712.549 l
732.877 717.598 l
733.098 725.427 l
733.319 738.622 l
733.76 776.654 l
733.98 701.209 l
734.421 701.995 l
734.862 703.333 l
735.304 705.646 l
735.745 709.866 l
736.186 718.456 l
736.406 726.492 l
736.627 740.202 l
736.847 766.733 l
737.068 776.654 l
737.289 700.895 l
738.612 700.705 l
739.274 700.797 l
739.715 701.002 l
740.156 701.4 l
740.597 702.106 l
741.038 703.321 l
741.479 705.432 l
741.92 709.269 l
742.361 716.969 l
742.582 724.026 l
742.802 735.773 l
743.243 776.654 l
743.464 700.826 l
744.346 700.175 l
745.008 699.41 l
745.67 698.224 l
746.331 696.396 l
746.993 693.743 l
748.096 687.911 l
748.978 683.671 l
749.64 681.622 l
750.081 680.799 l
750.522 680.308 l
750.963 680.056 l
751.625 679.959 l
752.507 680.114 l
754.051 680.685 l
757.138 682.129 l
760.667 684.017 l
763.314 685.685 l
765.299 687.202 l
766.843 688.671 l
767.945 689.998 l
768.828 691.347 l
769.71 693.144 l
770.372 695.015 l
771.033 697.741 l
771.474 700.45 l
771.915 704.564 l
772.357 711.637 l
772.577 717.483 l
772.798 726.476 l
773.018 741.715 l
773.239 771.438 l
773.459 776.654 l
773.68 702.409 l
774.121 706.69 l
774.562 714.568 l
774.783 721.435 l
775.003 732.499 l
775.444 776.654 l
775.665 701.971 l
776.106 704.954 l
776.547 710.217 l
776.988 720.944 l
777.209 731.262 l
777.65 776.654 l
777.87 701.566 l
778.311 703.373 l
778.753 706.458 l
779.194 712.17 l
779.414 717.015 l
779.635 724.478 l
779.855 736.937 l
780.296 776.654 l
780.517 701.195 l
780.958 701.942 l
781.399 703.215 l
781.84 705.412 l
782.281 709.399 l
782.723 717.418 l
782.943 724.809 l
783.164 737.208 l
783.605 776.654 l
783.825 700.89 l
785.149 700.625 l
786.031 700.658 l
786.692 700.949 l
787.134 701.382 l
787.575 702.142 l
788.016 703.445 l
788.457 705.71 l
788.898 709.854 l
789.339 718.292 l
789.56 726.173 l
789.78 739.578 l
790.001 765.386 l
790.221 776.654 l
790.442 700.843 l
791.545 700.146 l
792.206 699.487 l
792.868 698.486 l
793.53 696.951 l
794.191 694.685 l
795.074 690.516 l
796.397 684.059 l
797.058 682.003 l
797.5 681.154 l
797.941 680.633 l
798.382 680.353 l
799.043 680.227 l
799.926 680.359 l
801.249 680.826 l
803.675 681.936 l
803.675 681.936 l
stroke
grestore
0.651 0.024 0.157 setrgbcolor
gsave
194.1 115.4 609.8 662.2 clipbox
609.809 682.024 m
629.217 682.024 l
629.438 696.218 l
803.675 696.218 l
803.675 696.218 l
stroke
grestore
0.000 setgray
gsave
647.633424 779.693750 translate
0.000000 rotate
0.000000 2.906250 m /C glyphshow
10.048141 2.906250 m /parenright glyphshow
15.662445 2.906250 m /space glyphshow
20.236801 2.906250 m /t glyphshow
25.879211 2.906250 m /o glyphshow
34.683624 2.906250 m /n glyphshow
43.804245 2.906250 m /i glyphshow
47.802414 2.906250 m /c glyphshow
55.714447 2.906250 m /space glyphshow
60.288803 2.906250 m /b glyphshow
69.423477 2.906250 m /u glyphshow
78.544098 2.906250 m /r glyphshow
84.460556 2.906250 m /s glyphshow
91.958008 2.906250 m /t glyphshow
97.600418 2.906250 m /i glyphshow
101.598587 2.906250 m /n glyphshow
110.719208 2.906250 m /g glyphshow
grestore
0.204 0.541 0.741 setrgbcolor
gsave
194.1 115.4 842.7 662.2 clipbox
842.713 687.671 m
846.207 687.251 l
850.088 687.019 l
855.523 686.934 l
862.122 686.979 l
863.869 687.901 l
866.392 688.954 l
872.02 691.235 l
873.573 692.116 l
874.737 692.996 l
875.708 693.994 l
876.484 695.098 l
877.066 696.225 l
877.649 697.782 l
878.231 700.089 l
878.619 702.365 l
879.007 705.715 l
879.395 711.09 l
879.784 720.905 l
879.978 729.435 l
880.172 743.156 l
880.366 767.812 l
880.56 776.654 l
880.754 696.564 l
881.336 697.882 l
881.919 699.847 l
882.307 701.777 l
882.695 704.577 l
883.083 708.947 l
883.471 716.542 l
883.859 732.24 l
884.054 747.828 l
884.248 776.654 l
884.442 696.477 l
885.024 697.458 l
885.606 698.896 l
886.189 701.142 l
886.577 703.446 l
886.965 706.943 l
887.353 712.737 l
887.741 723.746 l
887.935 733.675 l
888.129 750.241 l
888.323 776.654 l
888.518 696.391 l
889.294 697.318 l
889.876 698.392 l
890.458 700.035 l
890.847 701.666 l
891.235 704.032 l
891.623 707.682 l
892.011 713.844 l
892.399 725.859 l
892.593 736.978 l
892.982 776.654 l
893.176 696.303 l
893.952 696.76 l
894.728 697.497 l
895.311 698.362 l
895.893 699.688 l
896.475 701.838 l
896.863 704.1 l
897.251 707.6 l
897.64 713.504 l
898.028 724.933 l
898.222 735.403 l
898.61 776.654 l
898.804 696.225 l
900.939 696.406 l
902.298 696.739 l
903.268 697.228 l
904.045 697.92 l
904.627 698.752 l
905.209 700.052 l
905.597 701.349 l
905.985 703.22 l
906.374 706.051 l
906.762 710.653 l
907.15 719.005 l
907.538 737.247 l
907.926 776.654 l
908.12 696.154 l
909.091 695.709 l
909.867 695.15 l
910.643 694.337 l
911.42 693.207 l
912.39 691.328 l
915.496 684.721 l
916.272 683.768 l
917.048 683.146 l
917.825 682.776 l
918.795 682.549 l
920.154 682.48 l
922.483 682.634 l
929.858 683.478 l
943.832 684.98 l
958.389 686.319 l
973.722 687.505 l
989.249 688.482 l
1003.42 689.159 l
1015.06 689.505 l
1024.57 689.574 l
1033.5 689.416 l
1036.61 689.317 l
1036.61 689.317 l
stroke
grestore
0.651 0.024 0.157 setrgbcolor
gsave
194.1 115.4 842.7 662.2 clipbox
842.713 682.024 m
862.122 682.024 l
862.316 682.592 l
1036.61 682.592 l
1036.61 682.592 l
stroke
grestore
0.000 setgray
gsave
874.529959 779.693750 translate
0.000000 rotate
0.000000 2.906250 m /D glyphshow
11.081055 2.906250 m /parenright glyphshow
16.695358 2.906250 m /space glyphshow
21.269714 2.906250 m /p glyphshow
30.404388 2.906250 m /h glyphshow
39.525009 2.906250 m /a glyphshow
48.343475 2.906250 m /s glyphshow
55.840927 2.906250 m /i glyphshow
59.839096 2.906250 m /c glyphshow
67.751129 2.906250 m /space glyphshow
72.325485 2.906250 m /b glyphshow
81.460159 2.906250 m /u glyphshow
90.580780 2.906250 m /r glyphshow
96.497238 2.906250 m /s glyphshow
103.994690 2.906250 m /t glyphshow
109.637100 2.906250 m /i glyphshow
113.635269 2.906250 m /n glyphshow
122.755890 2.906250 m /g glyphshow
grestore
0.204 0.541 0.741 setrgbcolor
gsave
194.1 115.4 144 523.6 clipbox
144 543.486 m
163.409 543.486 l
164.318 549.828 l
165.532 557.49 l
166.138 562.529 l
166.745 570.116 l
167.048 575.946 l
167.351 584.534 l
167.654 598.496 l
167.958 624.522 l
168.261 638.116 l
168.564 558.979 l
169.171 562.298 l
169.777 567.338 l
170.08 571.074 l
170.384 576.278 l
170.687 584.019 l
170.99 596.593 l
171.597 638.116 l
171.9 557.978 l
172.507 558.74 l
173.113 559.81 l
173.72 561.351 l
174.326 563.672 l
174.933 567.416 l
175.236 570.238 l
175.539 574.152 l
175.842 579.856 l
176.146 588.746 l
176.449 603.97 l
176.752 633.918 l
177.055 638.116 l
177.359 557.051 l
178.268 554.692 l
179.482 550.657 l
180.695 546.629 l
181.604 544.371 l
182.211 543.337 l
182.817 542.638 l
183.424 542.2 l
184.334 541.881 l
185.243 541.811 l
186.76 541.958 l
189.489 542.509 l
196.464 544.206 l
203.439 546.098 l
208.291 547.634 l
211.627 548.901 l
214.053 550.024 l
216.176 551.257 l
217.692 552.39 l
218.905 553.559 l
219.815 554.688 l
220.725 556.173 l
221.332 557.48 l
221.938 559.194 l
222.545 561.572 l
223.151 565.131 l
223.758 571.079 l
224.061 575.831 l
224.364 582.879 l
224.667 594.211 l
225.274 638.116 l
225.577 557.54 l
226.79 556.849 l
228.003 555.882 l
229.216 554.565 l
230.429 552.895 l
233.765 547.987 l
234.675 547.064 l
235.585 546.409 l
236.495 545.992 l
237.708 545.724 l
238.921 545.688 l
240.74 545.892 l
243.166 546.418 l
246.502 547.382 l
249.838 548.561 l
252.567 549.742 l
254.69 550.891 l
256.207 551.923 l
257.42 552.959 l
258.633 554.307 l
259.542 555.661 l
260.452 557.527 l
261.059 559.256 l
261.665 561.66 l
262.272 565.268 l
262.878 571.322 l
263.182 576.179 l
263.485 583.415 l
263.788 595.115 l
264.395 638.116 l
264.698 557.538 l
265.911 556.833 l
267.124 555.846 l
268.337 554.502 l
269.55 552.803 l
272.583 548.241 l
273.492 547.243 l
274.402 546.517 l
275.312 546.041 l
276.525 545.717 l
277.738 545.645 l
279.254 545.773 l
281.377 546.18 l
284.41 546.992 l
288.049 548.201 l
291.082 549.439 l
293.204 550.513 l
295.024 551.67 l
296.54 552.924 l
297.753 554.261 l
298.663 555.599 l
299.573 557.438 l
300.179 559.137 l
300.786 561.489 l
301.392 565.002 l
301.999 570.847 l
302.302 575.499 l
302.605 582.371 l
302.909 593.359 l
303.515 638.116 l
303.818 557.542 l
305.032 556.858 l
306.245 555.902 l
307.458 554.6 l
308.671 552.946 l
312.007 548.048 l
312.916 547.117 l
313.826 546.453 l
314.736 546.027 l
315.949 545.75 l
317.162 545.706 l
318.982 545.904 l
321.408 546.428 l
324.743 547.39 l
328.079 548.569 l
330.809 549.752 l
332.932 550.903 l
334.448 551.938 l
335.661 552.978 l
336.874 554.333 l
337.784 555.695 l
337.784 555.695 l
stroke
grestore
0.651 0.024 0.157 setrgbcolor
gsave
194.1 115.4 144 523.6 clipbox
144 543.486 m
163.409 543.486 l
163.712 552.949 l
337.784 552.949 l
337.784 552.949 l
stroke
grestore
0.000 setgray
gsave
187.129416 642.218319 translate
0.000000 rotate
0.000000 1.843750 m /E glyphshow
9.092514 1.843750 m /parenright glyphshow
14.706818 1.843750 m /space glyphshow
19.281174 1.843750 m /m glyphshow
33.299377 1.843750 m /i glyphshow
37.297546 1.843750 m /x glyphshow
45.313873 1.843750 m /e glyphshow
54.167480 1.843750 m /d glyphshow
63.302155 1.843750 m /space glyphshow
67.876511 1.843750 m /m glyphshow
81.894714 1.843750 m /o glyphshow
90.699127 1.843750 m /d glyphshow
99.833801 1.843750 m /e glyphshow
grestore
0.204 0.541 0.741 setrgbcolor
gsave
194.1 115.4 376.9 523.6 clipbox
376.904 543.486 m
396.313 543.486 l
398.596 572.674 l
399.167 584.387 l
399.738 603.014 l
400.309 638.116 l
400.88 552.916 l
402.021 562.785 l
402.592 569.006 l
403.163 577.243 l
403.734 589.404 l
404.305 609.979 l
404.876 638.116 l
405.447 551.021 l
407.159 559.803 l
407.73 563.479 l
408.301 568.02 l
408.872 574.022 l
409.442 582.624 l
410.013 596.273 l
410.584 621.136 l
411.155 638.116 l
411.726 549.18 l
414.58 554 l
415.722 556.314 l
416.863 559.216 l
417.434 561.034 l
418.005 563.23 l
418.576 565.974 l
419.147 569.541 l
419.718 574.413 l
420.288 581.499 l
420.859 592.692 l
421.43 612.531 l
422.001 638.116 l
422.572 547.49 l
423.714 546.221 l
424.855 545.227 l
425.997 544.503 l
427.139 544.016 l
428.28 543.719 l
429.993 543.534 l
432.276 543.596 l
435.13 543.937 l
439.697 544.76 l
445.406 546.044 l
450.543 547.439 l
454.539 548.76 l
457.393 549.907 l
459.677 551.017 l
461.96 552.398 l
463.673 553.715 l
464.814 554.8 l
465.956 556.133 l
467.098 557.836 l
468.239 560.125 l
468.81 561.61 l
469.381 563.43 l
469.952 565.722 l
470.523 568.703 l
471.094 572.745 l
471.664 578.518 l
472.235 587.358 l
472.806 602.253 l
473.377 631.077 l
473.948 638.116 l
474.519 546.994 l
475.66 544.858 l
476.802 543.235 l
477.944 542.123 l
479.085 541.433 l
480.227 541.05 l
481.369 540.874 l
483.081 540.845 l
485.936 541.1 l
491.073 541.865 l
499.636 543.38 l
507.628 545.015 l
513.336 546.388 l
517.903 547.689 l
521.328 548.854 l
524.182 550.022 l
526.465 551.158 l
528.178 552.189 l
529.891 553.453 l
531.032 554.486 l
532.174 555.743 l
533.316 557.33 l
534.457 559.432 l
535.599 562.4 l
536.17 564.417 l
536.741 566.993 l
537.312 570.404 l
537.882 575.133 l
538.453 582.091 l
539.024 593.179 l
539.595 612.961 l
540.166 638.116 l
540.737 546.998 l
541.878 544.87 l
543.02 543.252 l
544.162 542.143 l
545.303 541.454 l
546.445 541.071 l
547.587 540.895 l
549.299 540.866 l
552.153 541.12 l
557.291 541.885 l
565.854 543.403 l
570.42 544.307 l
570.42 544.307 l
stroke
grestore
0.651 0.024 0.157 setrgbcolor
gsave
194.1 115.4 376.9 523.6 clipbox
376.904 543.486 m
396.313 543.486 l
396.884 571.875 l
570.42 571.875 l
570.42 571.875 l
stroke
grestore
0.000 setgray
gsave
367.150951 641.155819 translate
0.000000 rotate
0.000000 2.906250 m /F glyphshow
8.277420 2.906250 m /parenright glyphshow
13.891724 2.906250 m /space glyphshow
18.466080 2.906250 m /s glyphshow
25.963531 2.906250 m /p glyphshow
35.098206 2.906250 m /i glyphshow
39.096375 2.906250 m /k glyphshow
46.930008 2.906250 m /e glyphshow
55.783615 2.906250 m /space glyphshow
60.357971 2.906250 m /f glyphshow
65.424194 2.906250 m /r glyphshow
70.965652 2.906250 m /e glyphshow
79.819260 2.906250 m /q glyphshow
88.953934 2.906250 m /u glyphshow
98.074554 2.906250 m /e glyphshow
106.928162 2.906250 m /n glyphshow
116.048782 2.906250 m /c glyphshow
123.960815 2.906250 m /y glyphshow
132.477142 2.906250 m /space glyphshow
137.051498 2.906250 m /a glyphshow
145.869965 2.906250 m /d glyphshow
155.004639 2.906250 m /a glyphshow
163.823105 2.906250 m /p glyphshow
172.957779 2.906250 m /t glyphshow
178.600189 2.906250 m /a glyphshow
187.418655 2.906250 m /t glyphshow
193.061066 2.906250 m /i glyphshow
197.059235 2.906250 m /o glyphshow
205.863647 2.906250 m /n glyphshow
grestore
0.204 0.541 0.741 setrgbcolor
gsave
194.1 115.4 609.8 523.6 clipbox
609.809 552.287 m
611.426 545.73 l
612.073 544.189 l
612.558 543.498 l
613.205 542.995 l
613.852 542.775 l
614.823 542.691 l
616.925 542.805 l
631.158 544.045 l
635.363 545.099 l
640.539 546.605 l
644.097 547.853 l
646.685 548.973 l
648.626 550.038 l
650.082 551.075 l
651.214 552.145 l
652.023 553.163 l
652.831 554.568 l
653.478 556.212 l
653.963 558.026 l
654.449 560.823 l
654.772 563.755 l
655.096 568.448 l
655.419 577.09 l
655.743 597.224 l
656.066 638.116 l
656.228 556.936 l
656.875 553.033 l
658.169 544.349 l
658.654 542.527 l
659.139 541.555 l
659.624 541.131 l
660.11 541.01 l
660.918 541.115 l
662.374 541.607 l
666.579 543.342 l
670.623 545.213 l
673.534 546.788 l
675.637 548.157 l
677.254 549.461 l
678.548 550.796 l
679.518 552.117 l
680.327 553.61 l
680.974 555.286 l
681.459 557.066 l
681.944 559.706 l
682.268 562.367 l
682.591 566.455 l
682.915 573.562 l
683.238 588.652 l
683.4 604.306 l
683.562 635.135 l
683.723 638.116 l
683.885 557.071 l
684.532 553.893 l
686.15 544.729 l
686.635 543.294 l
687.12 542.527 l
687.605 542.204 l
688.09 542.141 l
688.899 542.324 l
690.193 542.903 l
692.781 544.34 l
695.369 546.003 l
697.31 547.482 l
698.927 548.996 l
700.059 550.336 l
701.03 551.824 l
701.838 553.511 l
702.485 555.423 l
702.97 557.487 l
703.456 560.632 l
703.779 563.921 l
704.103 569.228 l
704.426 579.23 l
704.588 588.335 l
704.75 603.829 l
704.911 634.218 l
705.073 638.116 l
705.235 557.174 l
705.882 554.562 l
707.984 544.75 l
708.47 543.799 l
708.955 543.331 l
709.44 543.18 l
710.087 543.266 l
711.057 543.696 l
712.675 544.725 l
714.616 546.216 l
716.233 547.701 l
717.527 549.157 l
718.659 550.786 l
719.468 552.322 l
720.115 553.966 l
720.762 556.309 l
721.247 558.976 l
721.732 563.361 l
722.056 568.425 l
722.379 577.757 l
722.703 599.874 l
723.026 638.116 l
723.188 557.263 l
723.835 555.142 l
724.805 550.836 l
725.776 546.827 l
726.261 545.53 l
726.746 544.744 l
727.231 544.36 l
727.717 544.257 l
728.363 544.394 l
729.172 544.815 l
730.466 545.783 l
731.922 547.151 l
733.216 548.646 l
734.348 550.308 l
735.157 551.856 l
735.803 553.488 l
736.45 555.772 l
736.936 558.314 l
737.421 562.376 l
737.744 566.912 l
738.068 574.92 l
738.391 592.558 l
738.715 638.116 l
738.877 557.341 l
739.523 555.665 l
740.332 552.862 l
741.626 548.151 l
742.273 546.605 l
742.758 545.923 l
743.243 545.583 l
743.729 545.502 l
744.376 545.671 l
745.184 546.166 l
746.155 547.025 l
747.287 548.318 l
748.257 549.717 l
749.066 551.199 l
749.875 553.182 l
750.522 555.453 l
751.007 557.953 l
751.492 561.895 l
751.816 566.227 l
752.139 573.729 l
752.463 589.741 l
752.624 606.559 l
752.786 638.116 l
752.948 557.398 l
753.757 555.653 l
754.727 552.85 l
756.021 549.047 l
756.668 547.777 l
757.153 547.201 l
757.638 546.914 l
758.123 546.864 l
758.77 547.076 l
759.579 547.668 l
760.388 548.54 l
761.358 549.946 l
762.167 551.51 l
762.814 553.18 l
763.461 555.522 l
763.946 558.123 l
764.431 562.27 l
764.755 566.895 l
765.078 575.067 l
765.402 593.14 l
765.725 638.116 l
765.887 557.432 l
766.696 555.964 l
767.666 553.711 l
769.283 549.898 l
769.93 548.926 l
770.416 548.498 l
770.901 548.312 l
771.386 548.339 l
772.033 548.656 l
772.68 549.244 l
773.489 550.339 l
774.297 551.899 l
774.944 553.65 l
775.591 556.204 l
776.077 559.161 l
776.4 562.124 l
776.723 566.678 l
777.047 574.682 l
777.37 592.213 l
777.694 638.116 l
777.856 557.454 l
778.826 555.888 l
780.605 552.407 l
781.414 551.065 l
782.061 550.343 l
782.546 550.048 l
783.031 549.966 l
783.517 550.09 l
784.002 550.41 l
784.649 551.14 l
785.296 552.255 l
785.943 553.882 l
786.428 555.623 l
786.913 558.148 l
787.398 562.221 l
787.722 566.778 l
788.045 574.819 l
788.369 592.506 l
788.692 638.116 l
788.854 557.441 l
789.824 555.794 l
792.412 550.995 l
793.059 550.368 l
793.544 550.158 l
794.03 550.17 l
794.515 550.397 l
795 550.833 l
795.647 551.755 l
796.294 553.146 l
796.941 555.232 l
797.426 557.592 l
797.911 561.321 l
798.235 565.373 l
798.558 572.244 l
798.882 586.362 l
799.043 600.561 l
799.367 638.116 l
799.529 557.455 l
800.823 555.443 l
802.44 552.927 l
803.087 552.238 l
803.734 551.873 l
803.734 551.873 l
stroke
grestore
0.651 0.024 0.157 setrgbcolor
gsave
194.1 115.4 609.8 523.6 clipbox
609.809 543.486 m
630.188 543.592 l
803.734 562.631 l
803.734 562.631 l
stroke
grestore
0.000 setgray
gsave
635.922486 642.218319 translate
0.000000 rotate
0.000000 1.843750 m /G glyphshow
11.151321 1.843750 m /parenright glyphshow
16.765625 1.843750 m /space glyphshow
21.339981 1.843750 m /C glyphshow
31.388123 1.843750 m /l glyphshow
35.386292 1.843750 m /a glyphshow
44.204758 1.843750 m /s glyphshow
51.702209 1.843750 m /s glyphshow
59.199661 1.843750 m /space glyphshow
63.774017 1.843750 m /one glyphshow
72.929764 1.843750 m /space glyphshow
77.504120 1.843750 m /e glyphshow
86.107727 1.843750 m /x glyphshow
94.374054 1.843750 m /c glyphshow
102.286087 1.843750 m /i glyphshow
106.284256 1.843750 m /t glyphshow
111.926666 1.843750 m /a glyphshow
120.745132 1.843750 m /b glyphshow
129.879807 1.843750 m /l glyphshow
133.877975 1.843750 m /e glyphshow
grestore
0.204 0.541 0.741 setrgbcolor
gsave
194.1 115.4 842.7 523.6 clipbox
842.713 549.159 m
848.697 549.1 l
865.357 549.256 l
886.544 550.882 l
893.984 551.688 l
898.837 552.422 l
901.91 553.093 l
904.012 553.765 l
905.468 554.451 l
906.6 555.241 l
907.409 556.072 l
908.056 557.035 l
908.541 558.062 l
909.026 559.551 l
909.511 561.901 l
909.835 564.388 l
910.158 568.356 l
910.482 575.516 l
910.805 591.325 l
910.967 608.256 l
911.129 638.116 l
911.29 547.265 l
911.776 545.189 l
912.099 544.442 l
912.423 544.104 l
912.746 544.064 l
913.231 544.362 l
913.878 545.11 l
920.348 553.963 l
921.157 555.406 l
921.803 556.95 l
922.289 558.561 l
922.774 560.936 l
923.097 563.331 l
923.421 567.003 l
923.744 573.34 l
924.068 586.501 l
924.23 599.722 l
924.553 638.116 l
924.715 547.158 l
925.2 544.871 l
925.523 544.073 l
925.847 543.734 l
926.17 543.725 l
926.656 544.095 l
927.464 545.195 l
932.478 553.152 l
933.449 555.115 l
934.096 556.889 l
934.581 558.743 l
935.066 561.516 l
935.39 564.377 l
935.713 568.916 l
936.037 577.213 l
936.36 596.324 l
936.683 638.116 l
936.845 547.343 l
937.33 545.477 l
937.654 544.833 l
937.977 544.571 l
938.301 544.588 l
938.786 544.955 l
939.595 546.026 l
941.697 549.444 l
943.638 552.874 l
944.609 555.063 l
945.256 557.066 l
945.741 559.197 l
946.226 562.477 l
946.55 565.994 l
946.873 571.87 l
947.197 583.566 l
947.358 594.834 l
947.682 638.116 l
947.843 547.453 l
948.329 545.847 l
948.652 545.309 l
948.976 545.11 l
949.299 545.161 l
949.784 545.55 l
950.593 546.638 l
952.21 549.35 l
953.828 552.401 l
954.798 554.692 l
955.445 556.755 l
955.93 558.921 l
956.416 562.215 l
956.739 565.711 l
957.063 571.501 l
957.386 582.904 l
957.548 593.781 l
957.871 638.116 l
958.033 547.541 l
958.518 546.147 l
958.842 545.702 l
959.165 545.561 l
959.489 545.648 l
959.974 546.068 l
960.783 547.192 l
962.238 549.735 l
963.532 552.356 l
964.503 554.839 l
965.15 557.132 l
965.635 559.608 l
966.12 563.528 l
966.443 567.907 l
966.767 575.668 l
967.09 592.812 l
967.414 638.116 l
967.576 547.62 l
968.061 546.418 l
968.384 546.059 l
968.708 545.977 l
969.031 546.103 l
969.517 546.56 l
970.325 547.732 l
971.619 550.095 l
972.751 552.553 l
973.56 554.765 l
974.207 557.175 l
974.692 559.8 l
975.177 564.008 l
975.501 568.795 l
975.824 577.509 l
976.148 597.719 l
976.471 638.116 l
976.633 547.522 l
977.118 546.113 l
977.442 545.686 l
977.765 545.578 l
978.089 545.708 l
978.574 546.201 l
979.383 547.466 l
980.677 550.003 l
981.809 552.653 l
982.617 555.079 l
983.264 557.802 l
983.75 560.886 l
984.073 563.999 l
984.397 568.885 l
984.72 577.802 l
985.043 598.637 l
985.367 638.116 l
985.529 547.541 l
986.014 546.189 l
986.337 545.795 l
986.661 545.716 l
986.984 545.871 l
987.47 546.399 l
988.278 547.726 l
989.41 550.044 l
990.543 552.849 l
991.351 555.49 l
991.998 558.565 l
992.483 562.218 l
992.807 566.104 l
993.13 572.624 l
993.454 585.873 l
993.616 599.026 l
993.939 638.116 l
994.101 547.572 l
994.586 546.301 l
994.91 545.949 l
995.233 545.903 l
995.557 546.086 l
996.042 546.65 l
996.85 548.038 l
997.983 550.484 l
998.953 553.055 l
999.6 555.255 l
1000.25 558.34 l
1000.73 561.97 l
1001.06 565.797 l
1001.38 572.161 l
1001.7 584.924 l
1001.86 597.429 l
1002.19 638.116 l
1002.35 547.66 l
1002.83 546.602 l
1003.16 546.344 l
1003.48 546.363 l
1003.97 546.761 l
1004.61 547.726 l
1005.58 549.685 l
1006.55 552.114 l
1007.36 554.714 l
1008.01 557.635 l
1008.5 560.95 l
1008.82 564.315 l
1009.14 569.659 l
1009.47 579.638 l
1009.63 588.693 l
1009.79 604.078 l
1009.95 634.217 l
1010.11 638.116 l
1010.27 547.485 l
1010.76 546.043 l
1011.08 545.646 l
1011.41 545.597 l
1011.73 545.803 l
1012.22 546.43 l
1013.02 547.958 l
1014.16 550.655 l
1015.13 553.56 l
1015.77 556.156 l
1016.26 558.88 l
1016.74 563.088 l
1017.07 567.722 l
1017.39 575.894 l
1017.71 594.046 l
1018.04 638.116 l
1018.2 547.837 l
1018.52 547.338 l
1018.85 547.148 l
1019.17 547.208 l
1019.66 547.646 l
1020.3 548.666 l
1021.11 550.396 l
1021.92 552.583 l
1022.57 554.829 l
1023.21 557.972 l
1023.7 561.636 l
1024.02 565.464 l
1024.35 571.773 l
1024.67 584.293 l
1024.83 596.446 l
1025.15 638.116 l
1025.32 547.788 l
1025.64 547.215 l
1025.96 546.978 l
1026.29 547.015 l
1026.77 547.447 l
1027.42 548.492 l
1028.23 550.277 l
1029.04 552.537 l
1029.68 554.865 l
1030.33 558.142 l
1030.82 562.005 l
1031.14 566.101 l
1031.46 572.984 l
1031.79 587.116 l
1031.95 601.368 l
1032.27 638.116 l
1032.43 547.671 l
1032.92 546.681 l
1033.24 546.49 l
1033.57 546.585 l
1034.05 547.11 l
1034.7 548.267 l
1035.51 550.177 l
1036.31 552.562 l
1036.64 553.706 l
1036.64 553.706 l
stroke
grestore
0.651 0.024 0.157 setrgbcolor
gsave
194.1 115.4 842.7 523.6 clipbox
842.713 543.013 m
867.136 543.123 l
1036.64 546.842 l
1036.64 546.842 l
stroke
grestore
0.000 setgray
gsave
868.990897 642.218319 translate
0.000000 rotate
0.000000 1.843750 m /H glyphshow
10.821075 1.843750 m /parenright glyphshow
16.435379 1.843750 m /space glyphshow
21.009735 1.843750 m /C glyphshow
31.057877 1.843750 m /l glyphshow
35.056046 1.843750 m /a glyphshow
43.874512 1.843750 m /s glyphshow
51.371964 1.843750 m /s glyphshow
58.869415 1.843750 m /space glyphshow
63.443771 1.843750 m /two glyphshow
72.599518 1.843750 m /space glyphshow
77.173874 1.843750 m /e glyphshow
85.777481 1.843750 m /x glyphshow
94.043808 1.843750 m /c glyphshow
101.955841 1.843750 m /i glyphshow
105.954010 1.843750 m /t glyphshow
111.596420 1.843750 m /a glyphshow
120.414886 1.843750 m /b glyphshow
129.549561 1.843750 m /l glyphshow
133.547729 1.843750 m /e glyphshow
grestore
0.204 0.541 0.741 setrgbcolor
gsave
194.1 115.4 144 385.1 clipbox
144 404.948 m
163.409 404.948 l
164.573 408.551 l
166.126 412.346 l
168.067 417.106 l
168.843 419.429 l
181.265 420.1 l
184.37 420.498 l
186.311 420.974 l
187.475 421.436 l
188.64 422.13 l
189.416 422.795 l
190.193 423.71 l
190.969 425.003 l
191.745 426.897 l
192.522 429.816 l
192.91 431.907 l
193.298 434.658 l
193.686 438.394 l
194.074 443.671 l
194.463 451.529 l
194.851 464.104 l
195.239 486.402 l
195.627 499.578 l
196.015 407.946 l
197.18 403.497 l
197.956 401.395 l
198.733 399.971 l
199.509 399.075 l
200.285 398.546 l
201.062 398.25 l
202.226 398.056 l
204.167 398.023 l
208.825 398.272 l
234.056 399.734 l
257.735 400.865 l
282.966 401.843 l
310.138 402.67 l
337.699 403.307 l
337.699 403.307 l
stroke
grestore
0.651 0.024 0.157 setrgbcolor
gsave
194.1 115.4 144 385.1 clipbox
144 404.948 m
163.409 404.948 l
163.797 411.61 l
168.843 411.61 l
169.231 404.948 l
337.699 404.948 l
337.699 404.948 l
stroke
grestore
0.000 setgray
gsave
186.707541 502.617888 translate
0.000000 rotate
0.000000 2.906250 m /I glyphshow
4.244110 2.906250 m /parenright glyphshow
9.858414 2.906250 m /space glyphshow
14.432770 2.906250 m /s glyphshow
21.930222 2.906250 m /p glyphshow
31.064896 2.906250 m /i glyphshow
35.063065 2.906250 m /k glyphshow
42.896698 2.906250 m /e glyphshow
51.750305 2.906250 m /space glyphshow
56.324661 2.906250 m /l glyphshow
60.322830 2.906250 m /a glyphshow
69.141296 2.906250 m /t glyphshow
74.783707 2.906250 m /e glyphshow
83.637314 2.906250 m /n glyphshow
92.757935 2.906250 m /c glyphshow
100.669968 2.906250 m /y glyphshow
grestore
0.204 0.541 0.741 setrgbcolor
gsave
194.1 115.4 376.9 385.1 clipbox
376.904 412.49 m
385.153 411.618 l
389.277 411.438 l
394.13 411.462 l
396.313 411.529 l
398.254 415.568 l
398.982 417.512 l
399.71 420.127 l
400.195 422.587 l
400.68 426.159 l
401.165 431.509 l
401.65 441.074 l
401.893 449.844 l
402.136 464.777 l
402.378 493.956 l
402.621 499.578 l
402.863 414.08 l
406.26 409.368 l
407.23 408.525 l
408.201 407.992 l
409.171 407.71 l
410.384 407.604 l
412.083 407.724 l
414.751 408.182 l
428.58 410.831 l
435.13 411.766 l
441.196 412.415 l
446.776 412.795 l
451.628 412.913 l
456.237 412.805 l
461.332 412.456 l
471.764 411.671 l
476.859 411.573 l
483.167 411.689 l
504.759 412.262 l
514.221 412.169 l
532.659 411.935 l
550.127 412.063 l
567.837 412.079 l
570.749 412.066 l
570.749 412.066 l
stroke
grestore
0.651 0.024 0.157 setrgbcolor
gsave
194.1 115.4 376.9 385.1 clipbox
376.904 404.948 m
396.313 404.948 l
396.556 406.841 l
400.923 406.841 l
401.165 404.948 l
570.749 404.948 l
570.749 404.948 l
stroke
grestore
0.000 setgray
gsave
377.729076 502.727263 translate
0.000000 rotate
0.000000 2.796875 m /J glyphshow
4.244110 2.796875 m /parenright glyphshow
9.858414 2.796875 m /space glyphshow
14.432770 2.796875 m /s glyphshow
21.930222 2.796875 m /u glyphshow
31.050842 2.796875 m /b glyphshow
40.185516 2.796875 m /t glyphshow
45.827927 2.796875 m /h glyphshow
54.948547 2.796875 m /r glyphshow
60.490005 2.796875 m /e glyphshow
69.343613 2.796875 m /s glyphshow
76.841064 2.796875 m /h glyphshow
85.961685 2.796875 m /o glyphshow
94.766098 2.796875 m /l glyphshow
98.764267 2.796875 m /d glyphshow
107.898941 2.796875 m /space glyphshow
112.473297 2.796875 m /o glyphshow
121.277710 2.796875 m /s glyphshow
128.775162 2.796875 m /c glyphshow
136.687195 2.796875 m /i glyphshow
140.685364 2.796875 m /l glyphshow
144.683533 2.796875 m /l glyphshow
148.681702 2.796875 m /a glyphshow
157.500168 2.796875 m /t glyphshow
163.142578 2.796875 m /i glyphshow
167.140747 2.796875 m /o glyphshow
175.945160 2.796875 m /n glyphshow
185.065781 2.796875 m /s glyphshow
grestore
0.204 0.541 0.741 setrgbcolor
gsave
194.1 115.4 609.8 385.1 clipbox
609.809 412.49 m
613.205 411.8 l
615.146 411.665 l
617.572 411.743 l
625.578 412.176 l
629.339 412.258 l
631.28 414.578 l
632.735 414.829 l
633.948 414.805 l
634.919 414.579 l
635.889 414.131 l
636.981 413.368 l
638.922 411.783 l
640.256 412.64 l
640.863 412.948 l
643.895 411.596 l
645.23 411.316 l
646.564 411.265 l
648.383 411.434 l
655.177 412.271 l
657.967 412.275 l
669.612 411.993 l
678.831 412.069 l
698.967 412.048 l
745.67 412.045 l
747.732 414.559 l
749.187 414.841 l
750.4 414.851 l
751.492 414.622 l
752.463 414.183 l
753.554 413.424 l
756.466 411.211 l
757.436 410.862 l
758.407 410.749 l
759.62 410.845 l
761.56 411.264 l
765.2 412.245 l
767.262 415.049 l
769.567 416.404 l
770.416 417.132 l
771.022 417.889 l
771.507 418.779 l
771.993 420.164 l
772.357 421.835 l
772.72 424.633 l
772.963 427.785 l
773.206 433.182 l
773.448 444.004 l
773.691 472.775 l
773.812 499.578 l
773.933 413.976 l
775.268 409.464 l
775.753 408.503 l
776.238 407.982 l
776.723 407.799 l
777.33 407.876 l
778.179 408.283 l
780.363 409.722 l
782.546 411.011 l
784.366 411.838 l
786.185 412.424 l
787.883 412.743 l
789.582 412.834 l
791.401 412.696 l
794.191 412.208 l
796.86 411.824 l
799.043 411.739 l
802.076 411.868 l
803.774 411.978 l
803.774 411.978 l
stroke
grestore
0.651 0.024 0.157 setrgbcolor
gsave
194.1 115.4 609.8 385.1 clipbox
609.809 404.948 m
629.217 404.948 l
629.339 405.563 l
631.037 405.563 l
631.158 404.948 l
638.922 404.948 l
639.043 405.563 l
640.741 405.563 l
640.863 404.948 l
745.67 404.948 l
745.791 405.563 l
747.489 405.563 l
747.61 404.948 l
765.078 404.948 l
765.2 405.563 l
766.898 405.563 l
767.019 404.948 l
803.774 404.948 l
803.774 404.948 l
stroke
grestore
0.000 setgray
gsave
662.586549 503.680388 translate
0.000000 rotate
0.000000 1.843750 m /K glyphshow
9.436813 1.843750 m /parenright glyphshow
15.051117 1.843750 m /space glyphshow
19.625473 1.843750 m /r glyphshow
25.166931 1.843750 m /e glyphshow
34.020538 1.843750 m /s glyphshow
41.517990 1.843750 m /o glyphshow
50.322403 1.843750 m /n glyphshow
59.443024 1.843750 m /a glyphshow
68.261490 1.843750 m /t glyphshow
73.903900 1.843750 m /o glyphshow
82.708313 1.843750 m /r glyphshow
grestore
0.204 0.541 0.741 setrgbcolor
gsave
194.1 115.4 842.7 385.1 clipbox
842.713 413.749 m
847.08 407.704 l
848.536 406.322 l
849.991 405.383 l
851.447 404.797 l
852.903 404.457 l
854.843 404.237 l
857.755 404.153 l
860.181 404.176 l
861.151 408.147 l
862.607 412.83 l
864.063 417.509 l
865.518 416.411 l
866.974 414.959 l
868.915 412.559 l
869.885 411.264 l
871.826 417.397 l
872.797 421.194 l
874.252 427.951 l
874.737 429.96 l
875.223 432.682 l
875.708 436.509 l
876.193 442.152 l
876.678 451.042 l
877.163 466.414 l
877.649 496.939 l
878.134 499.578 l
878.619 417.476 l
879.59 413.544 l
881.53 405.25 l
882.501 402.219 l
883.471 400.269 l
884.442 399.173 l
885.412 398.62 l
886.383 398.372 l
887.838 398.273 l
890.75 398.394 l
936.845 401.369 l
960.136 402.532 l
978.574 403.307 l
979.544 407.257 l
981 411.683 l
981.97 414.396 l
984.397 410.613 l
985.852 408.459 l
987.308 406.727 l
988.278 405.858 l
989.249 405.204 l
990.704 404.55 l
992.16 404.178 l
994.101 403.945 l
997.012 403.863 l
997.983 403.869 l
998.953 407.822 l
1000.41 412.397 l
1001.38 415.303 l
1002.83 413.454 l
1006.72 408.2 l
1008.17 406.753 l
1009.63 405.735 l
1011.08 405.079 l
1012.54 404.686 l
1014.48 404.42 l
1017.39 404.3 l
1022.73 404.365 l
1036.31 404.718 l
1036.31 404.718 l
stroke
grestore
0.651 0.024 0.157 setrgbcolor
gsave
194.1 115.4 842.7 385.1 clipbox
842.713 404.948 m
860.181 404.948 l
860.666 413.465 l
864.063 413.465 l
864.548 404.948 l
869.885 404.948 l
870.37 413.465 l
873.767 413.465 l
874.252 404.948 l
978.574 404.948 l
979.059 413.465 l
981.97 413.465 l
982.456 404.948 l
997.983 404.948 l
998.468 413.465 l
1001.38 413.465 l
1001.86 404.948 l
1036.31 404.948 l
1036.31 404.948 l
stroke
grestore
0.000 setgray
gsave
894.764334 502.617888 translate
0.000000 rotate
0.000000 2.906250 m /L glyphshow
8.017426 2.906250 m /parenright glyphshow
13.631729 2.906250 m /space glyphshow
18.206085 2.906250 m /i glyphshow
22.204254 2.906250 m /n glyphshow
31.324875 2.906250 m /t glyphshow
36.967285 2.906250 m /e glyphshow
45.820892 2.906250 m /g glyphshow
54.955566 2.906250 m /r glyphshow
60.872025 2.906250 m /a glyphshow
69.690491 2.906250 m /t glyphshow
75.332901 2.906250 m /o glyphshow
84.137314 2.906250 m /r glyphshow
grestore
0.204 0.541 0.741 setrgbcolor
gsave
194.1 115.4 144 246.5 clipbox
144 272.058 m
147.299 271.657 l
151.181 271.427 l
156.422 271.362 l
163.409 271.439 l
164.185 261.521 l
164.573 258.583 l
164.961 256.894 l
165.35 256.016 l
165.738 255.591 l
166.32 255.351 l
167.29 255.306 l
168.067 255.347 l
168.455 260.247 l
169.037 264.036 l
169.619 266.188 l
170.202 267.609 l
170.978 268.919 l
171.949 270.05 l
173.113 271.013 l
174.472 271.837 l
176.218 272.632 l
178.547 273.435 l
181.653 274.253 l
185.729 275.085 l
191.551 276.025 l
200.091 277.376 l
202.226 277.946 l
203.585 278.504 l
204.749 279.233 l
205.526 279.951 l
206.302 280.998 l
206.884 282.147 l
207.466 283.841 l
208.049 286.533 l
208.437 289.37 l
208.825 293.837 l
209.213 301.69 l
209.601 318.186 l
209.795 334.844 l
209.99 361.04 l
210.184 274.901 l
211.542 268.286 l
212.125 266.291 l
212.707 264.968 l
213.289 264.184 l
213.871 263.768 l
214.648 263.554 l
215.618 263.558 l
217.365 263.828 l
233.28 266.785 l
241.82 268.041 l
250.554 269.101 l
259.676 269.983 l
268.992 270.66 l
278.89 271.157 l
289.953 271.482 l
303.928 271.654 l
329.547 271.699 l
337.893 271.698 l
337.893 271.698 l
stroke
grestore
0.651 0.024 0.157 setrgbcolor
gsave
194.1 115.4 144 246.5 clipbox
144 266.41 m
163.409 266.41 l
163.603 252.216 l
168.067 252.216 l
168.261 266.41 l
337.893 266.41 l
337.893 266.41 l
stroke
grestore
0.000 setgray
gsave
179.379416 364.079957 translate
0.000000 rotate
0.000000 2.906250 m /M glyphshow
12.416122 2.906250 m /parenright glyphshow
18.030426 2.906250 m /space glyphshow
22.604782 2.906250 m /r glyphshow
28.146240 2.906250 m /e glyphshow
36.999847 2.906250 m /b glyphshow
46.134521 2.906250 m /o glyphshow
54.938934 2.906250 m /u glyphshow
64.059555 2.906250 m /n glyphshow
73.180176 2.906250 m /d glyphshow
82.314850 2.906250 m /space glyphshow
86.889206 2.906250 m /s glyphshow
94.386658 2.906250 m /p glyphshow
103.521332 2.906250 m /i glyphshow
107.519501 2.906250 m /k glyphshow
115.353134 2.906250 m /e glyphshow
grestore
0.204 0.541 0.741 setrgbcolor
gsave
194.1 115.4 376.9 246.5 clipbox
376.904 272.058 m
380.204 271.657 l
384.086 271.427 l
389.326 271.362 l
396.313 271.439 l
397.089 261.521 l
397.478 258.583 l
397.866 256.894 l
398.254 256.016 l
398.642 255.591 l
399.224 255.351 l
400.195 255.306 l
400.971 255.347 l
401.359 260.247 l
401.942 264.036 l
402.524 266.188 l
403.106 267.609 l
403.882 268.919 l
404.853 270.05 l
406.017 271.013 l
407.376 271.837 l
409.123 272.632 l
411.452 273.435 l
414.557 274.253 l
418.633 275.085 l
424.456 276.025 l
432.995 277.376 l
435.13 277.946 l
436.489 278.504 l
437.654 279.233 l
438.43 279.951 l
439.206 280.998 l
439.789 282.147 l
440.371 283.841 l
440.953 286.533 l
441.341 289.37 l
441.729 293.837 l
442.118 301.69 l
442.506 318.186 l
442.7 334.844 l
442.894 361.04 l
443.088 284.015 l
443.67 286.412 l
444.058 288.937 l
444.447 292.875 l
444.835 299.647 l
445.223 313.262 l
445.417 326.303 l
445.805 361.04 l
445.999 283.885 l
446.582 285.73 l
446.97 287.639 l
447.358 290.524 l
447.746 295.216 l
448.134 303.756 l
448.522 322.538 l
448.911 361.04 l
449.105 283.775 l
449.687 285.152 l
450.075 286.558 l
450.463 288.628 l
450.851 291.842 l
451.24 297.246 l
451.628 307.564 l
451.822 316.827 l
452.016 332.138 l
452.21 360.632 l
452.404 361.04 l
452.598 283.645 l
453.181 284.481 l
453.763 285.868 l
454.151 287.321 l
454.539 289.508 l
454.927 292.986 l
455.315 299.008 l
455.704 310.979 l
455.898 322.183 l
456.286 361.04 l
456.48 283.555 l
457.062 284.019 l
457.645 284.782 l
458.227 286.067 l
458.615 287.426 l
459.003 289.481 l
459.391 292.752 l
459.779 298.388 l
460.168 309.446 l
460.362 319.62 l
460.75 361.04 l
460.944 283.482 l
461.914 283.818 l
462.497 284.208 l
463.079 284.857 l
463.661 285.96 l
464.049 287.127 l
464.438 288.88 l
464.826 291.633 l
465.214 296.253 l
465.602 304.899 l
465.796 312.428 l
465.99 324.424 l
466.378 361.04 l
466.573 283.41 l
467.737 283.099 l
468.513 282.708 l
469.29 282.043 l
469.872 281.264 l
470.454 280.153 l
471.037 278.636 l
471.813 275.969 l
473.948 267.989 l
474.53 266.644 l
475.112 265.748 l
475.695 265.201 l
476.471 264.837 l
477.441 264.714 l
478.8 264.814 l
481.905 265.339 l
491.416 266.971 l
499.955 268.196 l
508.883 269.247 l
518.006 270.096 l
527.516 270.753 l
537.608 271.223 l
548.865 271.519 l
563.616 271.669 l
570.797 271.69 l
570.797 271.69 l
stroke
grestore
0.651 0.024 0.157 setrgbcolor
gsave
194.1 115.4 376.9 246.5 clipbox
376.904 266.41 m
396.313 266.41 l
396.507 252.216 l
400.971 252.216 l
401.165 266.41 l
570.797 266.41 l
570.797 266.41 l
stroke
grestore
0.000 setgray
gsave
412.908764 365.142457 translate
0.000000 rotate
0.000000 1.843750 m /N glyphshow
10.764862 1.843750 m /parenright glyphshow
16.379166 1.843750 m /space glyphshow
20.953522 1.843750 m /r glyphshow
26.494980 1.843750 m /e glyphshow
35.348587 1.843750 m /b glyphshow
44.483261 1.843750 m /o glyphshow
53.287674 1.843750 m /u glyphshow
62.408295 1.843750 m /n glyphshow
71.528915 1.843750 m /d glyphshow
80.663589 1.843750 m /space glyphshow
85.237946 1.843750 m /b glyphshow
94.372620 1.843750 m /u glyphshow
103.493240 1.843750 m /r glyphshow
109.409698 1.843750 m /s glyphshow
116.907150 1.843750 m /t glyphshow
grestore
0.204 0.541 0.741 setrgbcolor
gsave
194.1 115.4 609.8 246.5 clipbox
609.809 272.05 m
616.602 271.643 l
624.365 271.421 l
629.217 271.371 l
632.129 272.653 l
638.437 275.083 l
642.803 274.658 l
647.656 273.955 l
661.727 271.723 l
666.579 271.307 l
671.917 271.075 l
679.195 270.997 l
692.296 271.129 l
729.657 271.566 l
745.67 271.645 l
747.125 267.66 l
748.096 265.631 l
749.066 264.193 l
750.037 263.258 l
751.007 262.69 l
751.977 262.364 l
753.433 262.134 l
754.889 262.061 l
755.859 264.571 l
756.83 266.173 l
757.8 267.301 l
758.77 268.145 l
760.226 269.086 l
762.167 269.979 l
764.593 270.764 l
765.078 270.892 l
767.019 272.22 l
770.416 274.208 l
773.812 276.279 l
774.297 276.617 l
777.209 277.432 l
779.15 278.157 l
780.605 278.866 l
782.061 279.804 l
783.031 280.624 l
784.002 281.685 l
784.972 283.112 l
785.943 285.13 l
786.428 286.485 l
786.913 288.187 l
787.398 290.378 l
787.883 293.292 l
788.369 297.324 l
788.854 303.203 l
789.339 312.391 l
789.824 328.221 l
790.31 359.683 l
790.795 361.04 l
791.28 274.696 l
793.706 268.867 l
794.677 267.068 l
795.647 265.735 l
796.617 264.827 l
797.588 264.256 l
798.558 263.925 l
800.014 263.711 l
801.955 263.702 l
803.41 263.789 l
803.41 263.789 l
stroke
grestore
0.651 0.024 0.157 setrgbcolor
gsave
194.1 115.4 609.8 246.5 clipbox
609.809 266.41 m
629.217 266.41 l
629.703 267.356 l
638.437 267.356 l
638.922 266.41 l
745.67 266.41 l
746.155 260.732 l
754.889 260.732 l
755.374 266.41 l
765.078 266.41 l
765.563 267.356 l
774.297 267.356 l
774.783 266.41 l
803.41 266.41 l
803.41 266.41 l
stroke
grestore
0.000 setgray
gsave
624.547486 364.079957 translate
0.000000 rotate
0.000000 2.906250 m /O glyphshow
11.326996 2.906250 m /parenright glyphshow
16.941299 2.906250 m /space glyphshow
21.515656 2.906250 m /t glyphshow
27.158066 2.906250 m /h glyphshow
36.278687 2.906250 m /r glyphshow
41.820145 2.906250 m /e glyphshow
50.673752 2.906250 m /s glyphshow
58.171204 2.906250 m /h glyphshow
67.291824 2.906250 m /o glyphshow
76.096237 2.906250 m /l glyphshow
80.094406 2.906250 m /d glyphshow
89.229080 2.906250 m /space glyphshow
93.803436 2.906250 m /v glyphshow
102.319763 2.906250 m /a glyphshow
111.138229 2.906250 m /r glyphshow
117.054688 2.906250 m /i glyphshow
121.052856 2.906250 m /a glyphshow
129.871323 2.906250 m /b glyphshow
139.005997 2.906250 m /i glyphshow
143.004166 2.906250 m /l glyphshow
147.002335 2.906250 m /i glyphshow
151.000504 2.906250 m /t glyphshow
156.642914 2.906250 m /y glyphshow
grestore
0.204 0.541 0.741 setrgbcolor
gsave
194.1 115.4 842.7 246.5 clipbox
842.713 274.913 m
852.903 274.101 l
856.461 274.222 l
866.974 274.937 l
868.106 276.823 l
868.915 278.67 l
869.562 280.847 l
870.047 283.365 l
870.532 286.715 l
870.856 290.561 l
871.179 297.402 l
871.503 312.18 l
871.664 327.632 l
871.826 358.158 l
871.988 361.04 l
872.15 275.132 l
873.282 270.271 l
873.929 268.558 l
874.414 267.877 l
874.899 267.588 l
875.384 267.564 l
876.031 267.779 l
877.163 268.465 l
882.501 272.035 l
885.25 273.51 l
889.132 275.306 l
892.043 276.725 l
893.337 277.574 l
894.308 278.467 l
894.955 279.308 l
895.602 280.528 l
896.087 281.896 l
896.572 284.015 l
896.896 286.21 l
897.219 289.621 l
897.543 295.523 l
897.866 307.642 l
898.028 319.584 l
898.351 361.04 l
898.513 275.223 l
899.807 270.389 l
900.454 268.944 l
900.939 268.36 l
901.424 268.105 l
901.91 268.08 l
902.557 268.269 l
903.689 268.895 l
909.997 272.819 l
913.07 274.326 l
918.569 276.949 l
919.863 277.879 l
920.671 278.707 l
921.318 279.643 l
921.965 281.039 l
922.45 282.663 l
922.936 285.29 l
923.259 288.153 l
923.583 292.889 l
923.906 301.917 l
924.23 323.879 l
924.553 361.04 l
924.715 275.154 l
925.847 270.414 l
926.494 268.715 l
926.979 268.024 l
927.464 267.72 l
927.95 267.68 l
928.597 267.877 l
929.729 268.541 l
935.39 272.26 l
938.301 273.779 l
945.579 277.374 l
946.55 278.183 l
947.358 279.145 l
948.005 280.282 l
948.49 281.536 l
948.976 283.437 l
949.461 286.65 l
949.784 290.339 l
950.108 296.864 l
950.431 310.765 l
950.593 325.044 l
950.755 352.649 l
950.917 361.04 l
951.078 275.135 l
952.21 270.29 l
952.857 268.579 l
953.343 267.896 l
953.828 267.605 l
954.313 267.579 l
954.96 267.792 l
956.092 268.475 l
961.43 272.04 l
964.179 273.515 l
968.061 275.309 l
970.972 276.729 l
972.266 277.58 l
973.237 278.475 l
973.883 279.319 l
974.53 280.544 l
975.016 281.919 l
975.501 284.053 l
975.824 286.267 l
976.148 289.713 l
976.471 295.692 l
976.795 308.029 l
976.957 320.248 l
977.28 361.04 l
977.442 275.213 l
978.574 270.807 l
979.221 269.15 l
979.706 268.437 l
980.191 268.091 l
980.677 268.008 l
981.323 268.154 l
982.294 268.654 l
982.456 268.754 l
983.426 270.537 l
984.882 272.638 l
985.529 273.515 l
987.308 273.44 l
989.41 273.578 l
992.483 274.031 l
1001.22 275.442 l
1004.45 275.704 l
1007.04 275.707 l
1009.3 275.502 l
1011.73 275.047 l
1017.71 273.754 l
1019.82 273.635 l
1022.08 273.736 l
1025.32 274.128 l
1034.21 275.315 l
1036.64 275.456 l
1036.64 275.456 l
stroke
grestore
0.651 0.024 0.157 setrgbcolor
gsave
194.1 115.4 842.7 246.5 clipbox
842.713 266.637 m
866.974 266.637 l
867.136 267.584 l
870.047 267.584 l
870.209 266.637 l
982.456 266.637 l
982.617 267.584 l
985.529 267.584 l
985.69 266.637 l
1036.64 266.637 l
1036.64 266.637 l
stroke
grestore
0.000 setgray
gsave
895.373709 364.079957 translate
0.000000 rotate
0.000000 2.906250 m /P glyphshow
8.677933 2.906250 m /parenright glyphshow
14.292236 2.906250 m /space glyphshow
18.866592 2.906250 m /b glyphshow
28.001266 2.906250 m /i glyphshow
31.999435 2.906250 m /s glyphshow
39.496887 2.906250 m /t glyphshow
45.139297 2.906250 m /a glyphshow
53.957764 2.906250 m /b glyphshow
63.092438 2.906250 m /i glyphshow
67.090607 2.906250 m /l glyphshow
71.088776 2.906250 m /i glyphshow
75.086945 2.906250 m /t glyphshow
80.729355 2.906250 m /y glyphshow
grestore
0.204 0.541 0.741 setrgbcolor
gsave
194.1 115.4 144 108 clipbox
144 127.872 m
178.936 127.872 l
180.488 134.945 l
182.817 145.222 l
183.982 151.706 l
184.758 157.361 l
185.535 165.065 l
186.311 176.722 l
186.699 183.408 l
187.087 192.578 l
187.864 222.502 l
188.252 138.302 l
189.028 139.912 l
190.193 141.716 l
191.357 143.002 l
192.522 143.927 l
193.686 144.593 l
195.239 145.192 l
196.792 145.555 l
198.733 145.769 l
200.673 145.774 l
202.614 145.588 l
204.555 145.199 l
206.496 144.568 l
208.049 143.853 l
209.601 142.921 l
211.154 141.753 l
213.095 139.968 l
215.424 137.462 l
219.306 133.22 l
221.247 131.482 l
222.799 130.379 l
224.352 129.534 l
225.905 128.917 l
227.846 128.405 l
230.175 128.06 l
233.28 127.866 l
238.326 127.816 l
295.388 127.872 l
337.699 127.872 l
337.699 127.872 l
stroke
grestore
0.651 0.024 0.157 setrgbcolor
gsave
194.1 115.4 144 108 clipbox
144 127.872 m
178.936 127.872 l
179.324 146.798 l
186.311 146.798 l
186.699 127.872 l
337.699 127.872 l
337.699 127.872 l
stroke
grestore
0.000 setgray
gsave
133.340353 225.542026 translate
0.000000 rotate
0.000000 2.906250 m /Q glyphshow
11.326996 2.906250 m /parenright glyphshow
16.941299 2.906250 m /space glyphshow
21.515656 2.906250 m /d glyphshow
30.650330 2.906250 m /e glyphshow
39.503937 2.906250 m /p glyphshow
48.638611 2.906250 m /o glyphshow
57.443024 2.906250 m /l glyphshow
61.441193 2.906250 m /a glyphshow
70.259659 2.906250 m /r glyphshow
76.176117 2.906250 m /i glyphshow
80.174286 2.906250 m /z glyphshow
87.727951 2.906250 m /i glyphshow
91.726120 2.906250 m /n glyphshow
100.846741 2.906250 m /g glyphshow
109.981415 2.906250 m /space glyphshow
114.555771 2.906250 m /a glyphshow
123.374237 2.906250 m /f glyphshow
128.190460 2.906250 m /t glyphshow
133.832870 2.906250 m /e glyphshow
142.686478 2.906250 m /r glyphshow
147.727936 2.906250 m /hyphen glyphshow
152.920639 2.906250 m /p glyphshow
162.055313 2.906250 m /o glyphshow
170.859726 2.906250 m /t glyphshow
176.502136 2.906250 m /e glyphshow
185.355743 2.906250 m /n glyphshow
194.476364 2.906250 m /t glyphshow
200.118774 2.906250 m /i glyphshow
204.116943 2.906250 m /a glyphshow
212.935410 2.906250 m /l glyphshow
grestore
0.204 0.541 0.741 setrgbcolor
gsave
194.1 115.4 376.9 108 clipbox
376.904 155.788 m
377.39 222.502 l
377.632 163.26 l
378.117 222.502 l
378.36 160.113 l
378.845 222.502 l
379.088 157.313 l
379.33 182.022 l
379.573 222.502 l
379.816 154.798 l
380.058 174.789 l
380.301 219.896 l
380.543 222.502 l
380.786 151.396 l
381.029 165.428 l
381.514 222.502 l
381.757 148.873 l
381.999 158.802 l
382.242 176.704 l
382.484 219.377 l
382.727 222.502 l
382.97 145.82 l
383.212 151.146 l
383.455 159.637 l
383.697 175.535 l
383.94 213.348 l
384.183 222.502 l
384.425 143.23 l
384.668 144.96 l
384.91 147.536 l
385.153 151.504 l
385.396 158.055 l
385.638 170.2 l
386.123 222.502 l
386.366 141.573 l
386.851 140.83 l
387.094 140.641 l
387.337 140.62 l
387.579 140.804 l
387.822 141.241 l
388.064 141.994 l
388.307 143.156 l
388.55 144.883 l
388.792 147.451 l
389.035 151.4 l
389.277 157.907 l
389.52 169.938 l
390.005 222.502 l
390.248 141.622 l
390.733 141.022 l
390.976 140.932 l
391.218 141.031 l
391.461 141.365 l
391.703 141.995 l
391.946 143.003 l
392.189 144.528 l
392.431 146.804 l
392.674 150.28 l
392.917 155.904 l
393.159 165.96 l
393.402 187.122 l
393.644 222.502 l
393.887 141.743 l
394.13 141.538 l
394.372 141.491 l
394.615 141.642 l
394.857 142.044 l
395.1 142.769 l
395.343 143.921 l
395.585 145.673 l
395.828 148.334 l
396.07 152.516 l
396.313 159.574 l
396.556 173.026 l
397.041 222.502 l
397.283 141.19 l
398.254 137.797 l
398.739 136.709 l
398.982 136.444 l
399.224 136.393 l
399.467 136.571 l
399.71 136.987 l
400.195 138.616 l
400.68 141.645 l
401.165 147.307 l
401.408 152.272 l
401.65 160.482 l
401.893 176.212 l
402.136 214.147 l
402.378 222.502 l
402.621 142.199 l
402.863 142.584 l
403.106 143.296 l
403.349 144.451 l
403.591 146.235 l
403.834 148.984 l
404.077 153.37 l
404.319 160.905 l
404.562 175.607 l
404.804 211.027 l
405.047 222.502 l
405.29 140.851 l
406.503 134.494 l
406.988 133.149 l
407.23 132.908 l
407.473 132.941 l
407.716 133.222 l
408.201 134.444 l
408.686 136.521 l
409.171 139.712 l
409.657 144.98 l
409.899 149.241 l
410.142 155.838 l
410.384 167.447 l
410.87 222.502 l
411.112 143.203 l
411.355 144.908 l
411.597 147.457 l
411.84 151.389 l
412.083 157.876 l
412.325 169.875 l
412.81 222.502 l
413.053 141.65 l
413.538 141.158 l
413.781 141.156 l
414.023 141.372 l
414.266 141.863 l
414.509 142.704 l
414.751 144.011 l
414.994 145.979 l
415.237 148.966 l
415.479 153.701 l
415.722 161.855 l
415.964 177.973 l
416.207 217.918 l
416.45 222.502 l
416.692 141.011 l
417.905 135.797 l
418.39 134.733 l
418.633 134.569 l
418.876 134.656 l
419.118 134.987 l
419.603 136.371 l
420.089 138.837 l
420.574 142.975 l
420.817 146.192 l
421.059 150.887 l
421.302 158.422 l
421.544 172.331 l
422.03 222.502 l
422.272 142.798 l
422.515 143.97 l
422.757 145.762 l
423 148.494 l
423.243 152.806 l
423.485 160.129 l
423.728 174.222 l
423.97 207.544 l
424.213 222.502 l
424.456 141.19 l
425.426 137.918 l
425.911 136.973 l
426.154 136.797 l
426.397 136.848 l
426.639 137.141 l
426.882 137.694 l
427.367 139.709 l
427.852 143.479 l
428.095 146.528 l
428.337 151.046 l
428.58 158.354 l
428.823 171.87 l
429.308 222.502 l
429.55 142.529 l
429.793 143.352 l
430.036 144.664 l
430.278 146.678 l
430.521 149.794 l
430.763 154.831 l
431.006 163.706 l
431.249 181.797 l
431.491 222.502 l
431.734 141.66 l
432.219 141.219 l
432.462 141.262 l
432.704 141.544 l
432.947 142.124 l
433.19 143.091 l
433.432 144.581 l
433.675 146.831 l
433.917 150.29 l
434.16 155.905 l
434.403 165.962 l
434.645 187.144 l
434.888 222.502 l
435.13 141.791 l
435.373 141.664 l
435.616 141.73 l
435.858 142.04 l
436.101 142.664 l
436.343 143.7 l
436.586 145.306 l
436.829 147.759 l
437.071 151.596 l
437.314 157.983 l
437.557 169.853 l
438.042 222.502 l
438.284 141.461 l
438.77 140.469 l
439.255 139.991 l
439.497 140.035 l
439.74 140.321 l
439.983 140.898 l
440.225 141.837 l
440.468 143.246 l
440.71 145.313 l
440.953 148.39 l
441.196 153.189 l
441.438 161.35 l
441.681 177.314 l
441.923 216.496 l
442.166 222.502 l
442.409 141.484 l
442.894 140.56 l
443.137 140.286 l
443.379 140.186 l
443.622 140.299 l
443.864 140.67 l
444.107 141.355 l
444.35 142.438 l
444.592 144.053 l
444.835 146.438 l
445.077 150.049 l
445.32 155.859 l
445.563 166.225 l
445.805 188.102 l
446.048 222.502 l
446.29 142.12 l
446.533 142.419 l
446.776 143.037 l
447.018 144.077 l
447.261 145.709 l
447.503 148.229 l
447.746 152.216 l
447.989 158.94 l
448.231 171.653 l
448.717 222.502 l
448.959 141.258 l
449.687 139.059 l
450.172 138.148 l
450.415 137.967 l
450.657 138.008 l
450.9 138.299 l
451.143 138.867 l
451.628 141.039 l
452.113 145.363 l
452.356 149.064 l
452.598 154.853 l
452.841 164.941 l
453.083 185.75 l
453.326 222.502 l
453.569 142.753 l
453.811 143.877 l
454.054 145.614 l
454.297 148.273 l
454.539 152.468 l
454.782 159.56 l
455.024 173.089 l
455.51 222.502 l
455.752 141.339 l
456.48 139.518 l
456.965 138.958 l
457.208 138.979 l
457.45 139.247 l
457.693 139.8 l
457.936 140.695 l
458.421 143.911 l
458.663 146.654 l
458.906 150.785 l
459.149 157.485 l
459.391 169.746 l
459.877 222.502 l
460.119 142.314 l
460.362 142.868 l
460.604 143.828 l
460.847 145.348 l
461.09 147.698 l
461.332 151.391 l
461.575 157.535 l
461.817 168.887 l
462.303 222.502 l
462.545 141.465 l
463.03 140.516 l
463.273 140.238 l
463.516 140.141 l
463.758 140.266 l
464.001 140.659 l
464.243 141.379 l
464.486 142.514 l
464.729 144.204 l
464.971 146.706 l
465.214 150.514 l
465.457 156.693 l
465.699 167.883 l
466.184 222.502 l
466.427 142.119 l
466.67 142.425 l
466.912 143.059 l
467.155 144.129 l
467.397 145.811 l
467.64 148.414 l
467.883 152.548 l
468.125 159.565 l
468.368 172.973 l
468.853 222.502 l
469.096 141.243 l
469.823 139.029 l
470.309 138.151 l
470.551 138.002 l
470.794 138.088 l
471.037 138.434 l
471.279 139.076 l
471.764 141.47 l
472.25 146.267 l
472.492 150.459 l
472.735 157.197 l
472.977 169.444 l
473.463 222.502 l
473.705 142.591 l
474.433 132.782 l
474.918 127.105 l
475.161 125.64 l
475.403 125.001 l
475.646 124.916 l
475.889 125.158 l
476.374 126.121 l
477.344 128.831 l
478.315 132.364 l
479.043 136.014 l
479.528 139.501 l
480.013 144.969 l
480.256 149.327 l
480.498 156.054 l
480.741 167.909 l
481.226 222.502 l
481.469 143.161 l
481.711 144.786 l
481.954 147.198 l
482.197 150.887 l
482.439 156.905 l
482.682 167.84 l
483.167 222.502 l
483.41 141.567 l
483.895 140.762 l
484.38 140.4 l
484.623 140.464 l
484.865 140.739 l
485.108 141.272 l
485.35 142.132 l
485.836 145.303 l
486.078 148.101 l
486.321 152.433 l
486.563 159.691 l
486.806 173.508 l
487.049 205.816 l
487.291 222.502 l
487.534 141.334 l
488.504 138.624 l
488.99 137.814 l
489.232 137.647 l
489.475 137.67 l
489.717 137.902 l
489.96 138.365 l
490.445 140.121 l
490.93 143.492 l
491.173 146.231 l
491.416 150.265 l
491.658 156.691 l
491.901 168.242 l
492.386 222.502 l
492.629 142.31 l
492.871 142.818 l
493.114 143.675 l
493.357 145.012 l
493.599 147.049 l
493.842 150.199 l
494.084 155.308 l
494.327 164.373 l
494.57 183.038 l
494.812 222.502 l
495.055 141.333 l
496.025 138.621 l
496.51 137.809 l
496.753 137.642 l
496.996 137.664 l
497.238 137.895 l
497.481 138.356 l
497.966 140.109 l
498.451 143.474 l
498.694 146.206 l
498.937 150.229 l
499.179 156.633 l
499.422 168.131 l
499.907 222.502 l
500.15 142.317 l
500.392 142.834 l
500.635 143.704 l
500.877 145.058 l
501.12 147.121 l
501.363 150.313 l
501.605 155.501 l
501.848 164.738 l
502.09 183.86 l
502.333 222.502 l
502.576 141.319 l
503.546 138.517 l
504.031 137.648 l
504.274 137.451 l
504.517 137.443 l
504.759 137.642 l
505.002 138.067 l
505.487 139.715 l
505.972 142.87 l
506.457 149.055 l
506.7 154.745 l
506.943 164.611 l
507.185 184.838 l
507.428 222.502 l
507.67 142.53 l
507.913 143.325 l
508.156 144.567 l
508.398 146.455 l
508.641 149.345 l
508.883 153.961 l
509.126 161.954 l
509.369 177.794 l
509.611 217.004 l
509.854 222.502 l
510.097 140.587 l
511.552 131.356 l
511.795 130.726 l
512.037 130.45 l
512.28 130.473 l
512.523 130.737 l
513.008 131.811 l
513.493 133.462 l
513.978 135.708 l
514.463 138.822 l
514.949 143.62 l
515.191 147.312 l
515.434 152.777 l
515.677 161.832 l
515.919 179.498 l
516.162 222.502 l
516.404 143.376 l
516.647 145.289 l
516.89 148.121 l
517.132 152.506 l
517.375 159.859 l
517.617 173.891 l
517.86 206.863 l
518.103 222.502 l
518.345 141.343 l
519.316 138.697 l
519.801 137.926 l
520.043 137.781 l
520.286 137.826 l
520.529 138.081 l
520.771 138.572 l
521.257 140.408 l
521.742 143.944 l
521.984 146.846 l
522.227 151.175 l
522.47 158.197 l
522.712 171.234 l
523.197 222.502 l
523.44 142.407 l
523.683 143.119 l
523.925 144.328 l
524.168 146.238 l
524.41 149.224 l
524.653 154.047 l
524.896 162.469 l
525.138 179.338 l
525.381 221.904 l
525.623 222.502 l
525.866 141.116 l
526.594 138.625 l
527.079 137.764 l
527.322 137.705 l
527.564 137.938 l
527.807 138.493 l
528.05 139.415 l
528.292 140.775 l
528.535 140.811 l
528.777 141.053 l
529.02 141.549 l
529.263 142.366 l
529.505 143.608 l
529.748 145.445 l
529.99 148.188 l
530.233 152.453 l
530.476 159.611 l
530.718 173.231 l
531.203 222.502 l
531.446 141.247 l
532.659 137.354 l
533.144 136.53 l
533.387 136.395 l
533.63 136.465 l
533.872 136.75 l
534.357 138.022 l
534.843 140.455 l
535.328 144.831 l
535.57 148.429 l
535.813 153.936 l
536.056 163.324 l
536.298 182.162 l
536.541 222.502 l
536.783 142.768 l
537.026 143.874 l
537.269 145.546 l
537.511 148.072 l
537.754 152.015 l
537.997 158.601 l
538.239 170.944 l
538.724 222.502 l
538.967 141.167 l
540.18 136.662 l
540.665 135.605 l
540.908 135.374 l
541.15 135.356 l
541.393 135.555 l
541.636 135.972 l
542.121 137.494 l
542.606 140.149 l
543.091 144.749 l
543.334 148.486 l
543.577 154.198 l
543.819 163.968 l
544.062 183.749 l
544.304 222.502 l
544.547 142.897 l
544.79 144.172 l
545.032 146.082 l
545.275 148.974 l
545.517 153.547 l
545.76 161.391 l
546.003 176.776 l
546.245 214.351 l
546.488 222.502 l
546.73 140.838 l
548.186 133.143 l
548.671 132.159 l
548.914 132.092 l
549.157 132.268 l
549.642 133.23 l
550.127 134.9 l
550.612 137.349 l
551.097 141.007 l
551.583 147.25 l
551.825 152.595 l
552.068 161.427 l
552.31 178.551 l
552.553 221.003 l
552.796 222.502 l
553.038 142.288 l
553.281 142.766 l
553.523 143.585 l
553.766 144.867 l
554.009 146.823 l
554.251 149.84 l
554.494 154.704 l
554.737 163.244 l
554.979 180.524 l
555.222 222.502 l
555.464 141.375 l
556.435 138.933 l
556.92 138.298 l
557.163 138.225 l
557.405 138.348 l
557.648 138.69 l
557.89 139.283 l
558.376 141.427 l
558.861 145.623 l
559.103 149.209 l
559.346 154.818 l
559.589 164.573 l
559.831 184.581 l
560.074 222.502 l
560.317 142.369 l
560.559 142.954 l
560.802 143.914 l
561.044 145.394 l
561.287 147.65 l
561.53 151.164 l
561.772 156.958 l
562.015 167.534 l
562.5 222.502 l
562.743 141.199 l
563.956 136.937 l
564.441 135.967 l
564.683 135.77 l
564.926 135.782 l
565.169 136.009 l
565.654 137.135 l
566.139 139.298 l
566.624 143.048 l
567.11 150.253 l
567.352 157.02 l
567.595 169.217 l
568.08 222.502 l
568.323 142.575 l
568.565 143.429 l
568.808 144.752 l
569.05 146.756 l
569.293 149.835 l
569.536 154.792 l
569.778 163.499 l
570.021 181.175 l
570.263 222.502 l
570.506 141.452 l
570.749 140.864 l
570.749 140.864 l
stroke
grestore
0.651 0.024 0.157 setrgbcolor
gsave
194.1 115.4 376.9 108 clipbox
376.904 127.872 m
473.705 135.424 l
473.948 127.872 l
522.47 127.872 l
528.292 131.506 l
528.535 127.872 l
570.749 127.872 l
570.749 127.872 l
stroke
grestore
0.000 setgray
gsave
406.619701 226.604526 translate
0.000000 rotate
0.000000 1.843750 m /R glyphshow
9.998947 1.843750 m /parenright glyphshow
15.613251 1.843750 m /space glyphshow
20.187607 1.843750 m /a glyphshow
29.006073 1.843750 m /c glyphshow
36.918106 1.843750 m /c glyphshow
44.830139 1.843750 m /o glyphshow
53.634552 1.843750 m /m glyphshow
67.652756 1.843750 m /m glyphshow
81.670959 1.843750 m /o glyphshow
90.475372 1.843750 m /d glyphshow
99.610046 1.843750 m /a glyphshow
108.428513 1.843750 m /t glyphshow
114.070923 1.843750 m /i glyphshow
118.069092 1.843750 m /o glyphshow
126.873505 1.843750 m /n glyphshow
grestore
0.204 0.541 0.741 setrgbcolor
gsave
194.1 115.4 609.8 108 clipbox
609.809 133.748 m
615.631 133.809 l
637.258 133.725 l
638.09 127.578 l
638.644 125.657 l
638.922 125.236 l
639.476 124.953 l
640.031 125.003 l
641.417 125.482 l
645.022 127.055 l
648.349 128.726 l
651.121 130.342 l
653.34 131.862 l
655.28 133.47 l
656.667 134.905 l
657.776 136.381 l
658.608 137.854 l
659.162 139.157 l
659.717 140.929 l
660.271 143.597 l
660.826 148.297 l
661.103 152.367 l
661.38 159.014 l
661.658 171.384 l
662.212 222.502 l
662.489 132.606 l
663.044 124.066 l
663.321 121.741 l
663.599 120.637 l
663.876 120.218 l
664.43 120.101 l
665.817 120.424 l
671.362 122.016 l
676.353 123.665 l
680.789 125.348 l
684.671 127.039 l
687.998 128.707 l
690.771 130.32 l
692.989 131.835 l
694.93 133.437 l
696.316 134.863 l
697.425 136.326 l
698.257 137.78 l
698.811 139.061 l
699.366 140.793 l
699.92 143.382 l
700.475 147.884 l
700.752 151.732 l
701.03 157.93 l
701.307 169.237 l
701.861 222.502 l
702.139 132.756 l
702.693 124.418 l
702.97 122.084 l
703.248 120.941 l
703.525 120.49 l
703.802 120.354 l
704.357 120.39 l
706.852 121.056 l
712.398 122.747 l
717.388 124.509 l
721.547 126.2 l
725.152 127.883 l
728.202 129.53 l
730.697 131.101 l
732.638 132.547 l
734.302 134.051 l
735.411 135.295 l
736.52 136.902 l
737.352 138.57 l
737.906 140.112 l
738.461 142.327 l
739.015 145.949 l
739.292 148.852 l
739.57 153.232 l
739.847 160.518 l
740.124 174.443 l
740.401 207.324 l
740.679 222.502 l
740.956 132.375 l
741.511 123.53 l
741.788 121.226 l
742.065 120.184 l
742.342 119.811 l
742.897 119.729 l
744.56 120.121 l
748.442 121.18 l
748.72 123.625 l
748.997 124.807 l
749.551 125.901 l
750.106 126.379 l
750.938 126.741 l
752.879 127.238 l
767.574 130.72 l
776.169 132.689 l
780.605 133.489 l
784.21 133.91 l
787.26 134.051 l
790.864 133.978 l
801.123 133.596 l
803.618 133.618 l
803.618 133.618 l
stroke
grestore
0.651 0.024 0.157 setrgbcolor
gsave
194.1 115.4 609.8 108 clipbox
609.809 203.576 m
637.258 203.576 l
637.535 198.845 l
748.442 198.845 l
748.72 203.576 l
803.618 203.576 l
803.618 203.576 l
stroke
grestore
0.000 setgray
gsave
606.453736 225.542026 translate
0.000000 rotate
0.000000 2.906250 m /s glyphshow
7.497452 2.906250 m /parenright glyphshow
13.111755 2.906250 m /space glyphshow
17.686111 2.906250 m /i glyphshow
21.684280 2.906250 m /n glyphshow
30.804901 2.906250 m /h glyphshow
39.925522 2.906250 m /i glyphshow
43.923691 2.906250 m /b glyphshow
53.058365 2.906250 m /i glyphshow
57.056534 2.906250 m /t glyphshow
62.698944 2.906250 m /i glyphshow
66.697113 2.906250 m /o glyphshow
75.501526 2.906250 m /n glyphshow
84.622147 2.906250 m /space glyphshow
89.196503 2.906250 m /i glyphshow
93.194672 2.906250 m /n glyphshow
102.315292 2.906250 m /d glyphshow
111.449966 2.906250 m /u glyphshow
120.570587 2.906250 m /c glyphshow
128.482620 2.906250 m /e glyphshow
137.336227 2.906250 m /d glyphshow
146.470901 2.906250 m /space glyphshow
151.045258 2.906250 m /s glyphshow
158.542709 2.906250 m /p glyphshow
167.677383 2.906250 m /i glyphshow
171.675552 2.906250 m /k glyphshow
180.009186 2.906250 m /i glyphshow
184.007355 2.906250 m /n glyphshow
193.127975 2.906250 m /g glyphshow
grestore
0.204 0.541 0.741 setrgbcolor
gsave
194.1 115.4 842.7 108 clipbox
842.713 133.748 m
848.258 133.8 l
867.113 133.73 l
870.162 133.736 l
870.717 129.261 l
871.272 126.432 l
871.549 125.708 l
871.826 125.31 l
872.103 125.128 l
872.658 125.113 l
873.49 125.424 l
875.708 126.626 l
878.48 128.367 l
880.976 130.198 l
882.917 131.89 l
884.58 133.655 l
885.689 135.119 l
886.521 136.489 l
887.353 138.289 l
887.908 139.928 l
888.462 142.255 l
889.017 146.026 l
889.294 149.039 l
889.571 153.589 l
889.848 161.19 l
890.126 175.851 l
890.403 211.062 l
890.68 222.502 l
890.958 156.417 l
891.235 165.102 l
891.512 183.068 l
891.789 222.502 l
892.067 156.126 l
892.344 164.256 l
892.621 180.869 l
892.898 222.502 l
893.176 155.886 l
893.453 163.562 l
893.73 179.085 l
894.007 218.178 l
894.285 222.502 l
894.562 154.201 l
894.839 158.751 l
895.117 167.262 l
895.394 185.63 l
895.671 222.502 l
895.948 153.56 l
896.226 156.953 l
896.503 163.084 l
896.78 175.494 l
897.057 205.61 l
897.335 222.502 l
897.612 152.03 l
897.889 152.729 l
898.166 153.778 l
898.444 155.467 l
898.721 158.374 l
898.998 163.771 l
899.276 174.877 l
899.83 222.502 l
900.107 149.957 l
900.385 147.165 l
900.662 142.615 l
901.771 117.272 l
902.048 115.995 l
902.325 115.751 l
903.157 115.852 l
908.98 117.174 l
914.525 118.663 l
919.516 120.237 l
923.952 121.866 l
928.111 123.636 l
931.716 125.413 l
934.766 127.146 l
937.538 128.973 l
939.757 130.685 l
941.697 132.477 l
943.084 134.042 l
944.193 135.605 l
945.025 137.109 l
945.856 139.165 l
946.411 141.141 l
946.965 144.146 l
947.243 146.393 l
947.52 149.572 l
947.797 154.435 l
948.075 162.699 l
948.352 179.054 l
948.629 219.968 l
948.906 222.502 l
949.184 156.055 l
949.461 164.049 l
949.738 180.336 l
950.015 221.957 l
950.293 222.502 l
950.57 154.229 l
950.847 158.83 l
951.124 167.45 l
951.402 186.103 l
951.679 222.502 l
951.956 153.575 l
952.234 156.995 l
952.511 163.181 l
952.788 175.721 l
953.065 206.241 l
953.343 222.502 l
953.62 152.023 l
953.897 152.71 l
954.174 153.739 l
954.452 155.39 l
954.729 158.224 l
955.006 163.468 l
955.283 174.204 l
955.838 222.502 l
956.115 150.014 l
956.393 147.315 l
956.67 142.9 l
957.779 117.501 l
958.056 116.102 l
958.333 115.821 l
958.888 115.857 l
963.601 116.907 l
969.147 118.348 l
974.138 119.869 l
978.574 121.44 l
981.347 122.547 l
981.624 125.03 l
982.178 127.249 l
982.733 128.291 l
983.287 128.903 l
984.119 129.487 l
985.506 130.128 l
988.556 131.188 l
993.824 132.782 l
997.428 133.653 l
1000.2 134.088 l
1002.42 134.228 l
1004.91 134.153 l
1009.07 133.732 l
1012.4 133.505 l
1015.73 133.507 l
1029.31 133.783 l
1036.52 133.682 l
1036.52 133.682 l
stroke
grestore
0.651 0.024 0.157 setrgbcolor
gsave
194.1 115.4 842.7 108 clipbox
842.713 203.576 m
870.162 203.576 l
870.44 198.845 l
981.347 198.845 l
981.624 203.576 l
1036.52 203.576 l
1036.52 203.576 l
stroke
grestore
0.000 setgray
gsave
835.194022 225.542026 translate
0.000000 rotate
0.000000 2.906250 m /s glyphshow
7.497452 2.906250 m /parenright glyphshow
13.111755 2.906250 m /space glyphshow
17.686111 2.906250 m /i glyphshow
21.684280 2.906250 m /n glyphshow
30.804901 2.906250 m /h glyphshow
39.925522 2.906250 m /i glyphshow
43.923691 2.906250 m /b glyphshow
53.058365 2.906250 m /i glyphshow
57.056534 2.906250 m /t glyphshow
62.698944 2.906250 m /i glyphshow
66.697113 2.906250 m /o glyphshow
75.501526 2.906250 m /n glyphshow
84.622147 2.906250 m /space glyphshow
89.196503 2.906250 m /i glyphshow
93.194672 2.906250 m /n glyphshow
102.315292 2.906250 m /d glyphshow
111.449966 2.906250 m /u glyphshow
120.570587 2.906250 m /c glyphshow
128.482620 2.906250 m /e glyphshow
137.336227 2.906250 m /d glyphshow
146.470901 2.906250 m /space glyphshow
151.045258 2.906250 m /b glyphshow
160.179932 2.906250 m /u glyphshow
169.300552 2.906250 m /r glyphshow
175.217010 2.906250 m /s glyphshow
182.714462 2.906250 m /t glyphshow
188.356873 2.906250 m /i glyphshow
192.355042 2.906250 m /n glyphshow
201.475662 2.906250 m /g glyphshow
grestore

end
showpage
